{
  "use_profile": true,
  "result_count": 11715,
  "choices": [],
  "questions": [{
    "extra": {},
    "text": "A",
    "number": 1,
    "image_url": "",
    "extra_json": "{}",
    "quiz_id": 538,
    "type": "D",
    "id": 1420
  }],
  "coupon_promoted": "",
  "hide_comments": "N",
  "badge_promoted": false,
  "hide_ads": "N",
  "banner_promoted": false,
  "quiz": {
    "time_limit": 0,
    "feedback": "N",
    "extra": {
      "thumbnail-size": {
        "width": 1200,
        "height": 630
      },
      "thumbnail-overlay": [{
        "shadow-color": "#d3243b",
        "color": "#ffffff",
        "text": "What Do People Envy Most About You?",
        "top": "0px",
        "overlay_type": "text",
        "font-size": "45px",
        "shadow-offset-x": "2px",
        "text-box-width": "1200px",
        "shadow-offset-y": "2px",
        "font-name": "NotoSansCJK-Bold.ttc",
        "text-align": "center",
        "left": "0px"
      }]
    },
    "updated_at": "2015-11-14T08:55:46",
    "thumbnail_path": "/api/i/538/0/thumbnail",
    "id": 538,
    "special": "",
    "type2": "X",
    "title": "What Do People Envy Most About You?",
    "bg_image_url": "http://lh3.googleusercontent.com/CaEF7qriaybNexJ0Q3K0devCutddWTqD5aXr_BQKe99fUbsIfqYBtMU0mVzjVEWrTFXuuuNwlEIClGu8WMY=s0",
    "temp_flag": "",
    "desc": "What's your killer asset that makes others weak in the knees?",
    "type": "C",
    "bg_color": "",
    "sns": "",
    "hashtag": "",
    "open_at": "2015-11-13T09:28:20",
    "image2_url": "",
    "created_at": "2015-11-11T11:25:46",
    "enabled": "Y",
    "thumbnail_url": "http://lh3.googleusercontent.com/SBvOfqpqEgcut3C8LoELWvCEsI0xX473oDB9pV3yNrLiRC3vFRCRkOC_kWSiw-G37E44y60I7bRPCUjjBzmmOw=s0",
    "image_url": ""
  }
}
