{
    "use_profile": true,
    "result_count": 373,
    "choices": [{
        "next_step": "D",
        "weight": 0,
        "text": "",
        "number": 1,
        "correct": "N",
        "image_url": "",
        "type": "U",
        "id": 5738,
        "next_question_id": null,
        "question_id": 2387
    }],
    "questions": [{
        "choiceMappings": {
            "5738": 0
        },
        "extra": {},
        "text": "Pleae enter your name",
        "choiceIds": [5738],
        "number": 1,
        "image_url": "",
        "extra_json": "{}",
        "quiz_id": 828,
        "type": "U",
        "id": 2387
    }],
    "coupon_promoted": "",
    "hide_comments": "N",
    "badge_promoted": false,
    "hide_ads": "N",
    "banner_promoted": false,
    "quiz": {
        "time_limit": 0,
        "feedback": "N",
        "extra": {
            "dq_y": false,
            "dqr_y": false,
            "dq_m_desc": "Which month were you born?",
            "dq_y_desc": "Which year were you born?",
            "dq_m": true,
            "dq_up": false,
            "dqr_m": true,
            "dq_d": false
        },
        "updated_at": "2016-01-27T03:00:52",
        "thumbnail_path": "/api/i/828/0/thumbnail",
        "id": 828,
        "special": "",
        "type2": "X",
        "title": "Discover Your Personalized Love Spell",
        "bg_image_url": "http://lh3.googleusercontent.com/NW77KV3U7jTyZA-9q_W9UoXCwzCcpUMCO5z9aHEt06MBPAa4hjZD6g5YX01CtT0T0i-5uXA0gkdR4tEKSjc0=s0",
        "temp_flag": "",
        "desc": "Looking for love? Look no further! Based on your name and birthday, we will provide you the ingredients, incantations, and rituals needed to personalize your very own love spell.",
        "type": "B",
        "bg_color": "",
        "sns": "",
        "hashtag": "",
        "open_at": "2016-01-25T02:00:56",
        "image2_url": "",
        "created_at": "2016-01-21T14:45:51",
        "enabled": "Y",
        "thumbnail_url": "http://lh3.googleusercontent.com/pMqPVfDEpixLLyqE6LtHY6XrlsCx-Q1KZYMg_2VlTs4gDKphR3TR-bKC95Ojz8v8bggSO12A8hHMR40rX1f8=s0",
        "image_url": ""
    }
}