[{
        "id": "170684169645040"
    },
    {
        "id": "199933583352573"
    },
    {
        "id": "191099080910246"
    },
    {
        "id": "192471440783917"
    },
    {
        "id": "638513672846238"
    },
    {
        "id": "519715311572137"
    },
    {
        "id": "144240205628328"
    },
    {
        "id": "141569735906115"
    },
    {
        "id": "140743755989941"
    },
    {
        "id": "169525869742367"
    },
    {
        "id": "246560865463407"
    },
    {
        "id": "291949690874538"
    },
    {
        "id": "1650543428588819"
    },
    {
        "id": "127926490599042"
    },
    {
        "id": "191184810914675"
    },
    {
        "id": "686827511437081"
    },
    {
        "id": "333747356705341"
    },
    {
        "id": "432638250153045"
    },
    {
        "id": "164736843558091"
    },
    {
        "id": "351535214931486"
    },
    {
        "id": "166593333390535"
    },
    {
        "id": "1646216248974835"
    },
    {
        "id": "131839906957023"
    },
    {
        "id": "145883212229802"
    },
    {
        "id": "271651342867913"
    },
    {
        "id": "167239423296429"
    },
    {
        "id": "170756426287421"
    },
    {
        "id": "121126084763453"
    },
    {
        "id": "132139833633587"
    },
    {
        "id": "343060205884716"
    },
    {
        "id": "661390267298869"
    },
    {
        "id": "164536270255038"
    },
    {
        "id": "227766210618487"
    },
    {
        "id": "1388784068037585"
    },
    {
        "id": "210663789001053"
    },
    {
        "id": "218841794970690"
    },
    {
        "id": "431211233589400"
    },
    {
        "id": "184780421656933"
    },
    {
        "id": "320215434663240"
    },
    {
        "id": "169059243113387"
    },
    {
        "id": "575447595842739"
    },
    {
        "id": "225802200813140"
    },
    {
        "id": "169291916429456"
    },
    {
        "id": "226455614082490"
    },
    {
        "id": "205706439498569"
    },
    {
        "id": "119766161464178"
    },
    {
        "id": "418514481505349"
    },
    {
        "id": "175349752482004"
    },
    {
        "id": "427233540682534"
    },
    {
        "id": "170168553002477"
    },
    {
        "id": "188716051158768"
    },
    {
        "id": "162339850471253"
    },
    {
        "id": "228913933333"
    },
    {
        "id": "341856872559637"
    },
    {
        "id": "174422009236674"
    },
    {
        "id": "149951525051300"
    },
    {
        "id": "144871905560333"
    },
    {
        "id": "174537189225472"
    },
    {
        "id": "174648815879544"
    },
    {
        "id": "110099659014190"
    },
    {
        "id": "128494820541969"
    },
    {
        "id": "128102930195"
    },
    {
        "id": "163963263626366"
    },
    {
        "id": "174733349204003"
    },
    {
        "id": "134459856719423"
    },
    {
        "id": "667008949981470"
    },
    {
        "id": "496297510437788"
    },
    {
        "id": "54142169774"
    },
    {
        "id": "188656647833354"
    },
    {
        "id": "255853774517437"
    },
    {
        "id": "190197301013268"
    },
    {
        "id": "194298920697083"
    },
    {
        "id": "158271914308"
    },
    {
        "id": "190594540961247"
    },
    {
        "id": "131494110238908"
    },
    {
        "id": "182712805097336"
    },
    {
        "id": "178030632223397"
    },
    {
        "id": "178185772308055"
    },
    {
        "id": "184959018248509"
    },
    {
        "id": "175195095896647"
    },
    {
        "id": "203194446364461"
    },
    {
        "id": "127670530623367"
    },
    {
        "id": "192130540805325"
    },
    {
        "id": "161906270516920"
    },
    {
        "id": "123332751061794"
    },
    {
        "id": "133378786729181"
    },
    {
        "id": "106037409464600"
    },
    {
        "id": "128478667210127"
    },
    {
        "id": "172292279448676"
    },
    {
        "id": "173871932646805"
    },
    {
        "id": "179421198765767"
    },
    {
        "id": "167931423227375"
    },
    {
        "id": "164204300279782"
    },
    {
        "id": "161021307274239"
    },
    {
        "id": "158443064198066"
    },
    {
        "id": "100736789997595"
    },
    {
        "id": "175940739089122"
    },
    {
        "id": "190495017657937"
    },
    {
        "id": "197697433574693"
    },
    {
        "id": "126938587363694"
    },
    {
        "id": "165506343480441"
    },
    {
        "id": "163355413714742"
    },
    {
        "id": "172601962786336"
    },
    {
        "id": "135408346510374"
    },
    {
        "id": "105308662875774"
    },
    {
        "id": "201044039911763"
    },
    {
        "id": "201352826543331"
    },
    {
        "id": "163799050320248"
    },
    {
        "id": "181209245247496"
    },
    {
        "id": "173543559325506"
    },
    {
        "id": "198791590131639"
    },
    {
        "id": "192001797490266"
    },
    {
        "id": "174317739252382"
    },
    {
        "id": "164260660290528"
    },
    {
        "id": "182062608498383"
    },
    {
        "id": "169239823103529"
    },
    {
        "id": "176370892373624"
    },
    {
        "id": "176370635710696"
    },
    {
        "id": "234296989969478"
    },
    {
        "id": "243960888984357"
    },
    {
        "id": "154581467930945"
    },
    {
        "id": "198964476795948"
    },
    {
        "id": "186875388019388"
    },
    {
        "id": "125916300812912"
    },
    {
        "id": "187726724591351"
    },
    {
        "id": "153866911333291"
    },
    {
        "id": "198147450197000"
    },
    {
        "id": "187913661240141"
    },
    {
        "id": "110904862318904"
    },
    {
        "id": "153449001376686"
    },
    {
        "id": "188730897826349"
    },
    {
        "id": "199225710094177"
    },
    {
        "id": "201862743161504"
    },
    {
        "id": "184233808282005"
    },
    {
        "id": "193487707346936"
    },
    {
        "id": "150705191657353"
    },
    {
        "id": "141218472607156"
    },
    {
        "id": "188641627847890"
    },
    {
        "id": "111005082314526"
    },
    {
        "id": "208622822481462"
    },
    {
        "id": "198470983506740"
    },
    {
        "id": "154355187951107"
    },
    {
        "id": "198643813481219"
    },
    {
        "id": "110741689003932"
    },
    {
        "id": "220707221276916"
    },
    {
        "id": "246552895396027"
    },
    {
        "id": "119903974784572"
    },
    {
        "id": "273505632683386"
    },
    {
        "id": "241047645943898"
    },
    {
        "id": "125839210823132"
    },
    {
        "id": "202072273142152"
    },
    {
        "id": "199087686784399"
    },
    {
        "id": "112254918852042"
    },
    {
        "id": "176205565738909"
    },
    {
        "id": "130235110378912"
    },
    {
        "id": "191957160827525"
    },
    {
        "id": "166574353393683"
    },
    {
        "id": "127659970640794"
    },
    {
        "id": "136491619751561"
    },
    {
        "id": "196380153725333"
    },
    {
        "id": "157787114276467"
    },
    {
        "id": "125206564219157"
    },
    {
        "id": "135521659848066"
    },
    {
        "id": "149512158444020"
    },
    {
        "id": "114505055292481"
    },
    {
        "id": "126117210793708"
    },
    {
        "id": "136256746442278"
    },
    {
        "id": "196844817009202"
    },
    {
        "id": "129292153806529"
    },
    {
        "id": "171031546256783"
    },
    {
        "id": "173819829296546"
    },
    {
        "id": "117018828362476"
    },
    {
        "id": "106319406104526"
    },
    {
        "id": "175713292442888"
    },
    {
        "id": "175834039097695"
    },
    {
        "id": "139644409420592"
    },
    {
        "id": "163924076973685"
    },
    {
        "id": "147568621955419"
    },
    {
        "id": "163312693708973"
    },
    {
        "id": "139751076075806"
    },
    {
        "id": "153011738076964"
    },
    {
        "id": "161978587175809"
    },
    {
        "id": "161268483912534"
    },
    {
        "id": "174883979193721"
    },
    {
        "id": "160922350612455"
    },
    {
        "id": "139130146139268"
    },
    {
        "id": "172241616122048"
    },
    {
        "id": "161047507265028"
    },
    {
        "id": "166220793400652"
    },
    {
        "id": "111606558907266"
    },
    {
        "id": "144299688951554"
    },
    {
        "id": "161640090542463"
    },
    {
        "id": "116575505072943"
    },
    {
        "id": "106267252775793"
    },
    {
        "id": "145328282181216"
    },
    {
        "id": "106614042741967"
    },
    {
        "id": "164144023616272"
    },
    {
        "id": "165378263485490"
    },
    {
        "id": "166381226716479"
    },
    {
        "id": "160368800650548"
    },
    {
        "id": "127837630605225"
    },
    {
        "id": "146860678691632"
    },
    {
        "id": "156882177682023"
    },
    {
        "id": "113185705411974"
    },
    {
        "id": "167722493243275"
    },
    {
        "id": "164077176945037"
    },
    {
        "id": "59533545722"
    },
    {
        "id": "19200258696"
    },
    {
        "id": "367579831282"
    },
    {
        "id": "105902966107705"
    },
    {
        "id": "128424490528092"
    },
    {
        "id": "124711627548465"
    },
    {
        "id": "164549323568721"
    },
    {
        "id": "170413159651508"
    },
    {
        "id": "175747079107122"
    },
    {
        "id": "172548562758346"
    },
    {
        "id": "164079913626537"
    },
    {
        "id": "116835295047904"
    },
    {
        "id": "110854652314294"
    },
    {
        "id": "172301659448374"
    },
    {
        "id": "174200172596007"
    },
    {
        "id": "163721070326390"
    },
    {
        "id": "160523310649167"
    },
    {
        "id": "109394752458927"
    },
    {
        "id": "130029267051798"
    },
    {
        "id": "159382574097025"
    },
    {
        "id": "172357719443298"
    },
    {
        "id": "157385994303862"
    },
    {
        "id": "173458266003537"
    },
    {
        "id": "109805335761934"
    },
    {
        "id": "146358358757620"
    },
    {
        "id": "200017976682432"
    },
    {
        "id": "140566856005812"
    },
    {
        "id": "180771538625732"
    },
    {
        "id": "179443262078382"
    },
    {
        "id": "137208253000347"
    },
    {
        "id": "115553508512268"
    },
    {
        "id": "173943505967161"
    },
    {
        "id": "174766762542659"
    },
    {
        "id": "171545462867916"
    },
    {
        "id": "171614349528770"
    },
    {
        "id": "108567232549098"
    },
    {
        "id": "153033121418722"
    },
    {
        "id": "199608010051907"
    },
    {
        "id": "129367590467010"
    },
    {
        "id": "146670628726471"
    },
    {
        "id": "200774316605516"
    },
    {
        "id": "146915555370213"
    },
    {
        "id": "139938719401845"
    },
    {
        "id": "151284408262627"
    },
    {
        "id": "125702087502781"
    },
    {
        "id": "145412268854070"
    },
    {
        "id": "193091890715896"
    },
    {
        "id": "181146028589553"
    },
    {
        "id": "139874192741917"
    },
    {
        "id": "178138748896336"
    },
    {
        "id": "166422040071515"
    },
    {
        "id": "192099707481098"
    },
    {
        "id": "103472043058631"
    },
    {
        "id": "103405359732886"
    },
    {
        "id": "160306927338904"
    },
    {
        "id": "106708359397320"
    },
    {
        "id": "143177282395998"
    },
    {
        "id": "166434180043291"
    },
    {
        "id": "168780433150031"
    },
    {
        "id": "169183119776000"
    },
    {
        "id": "169009813129073"
    },
    {
        "id": "172118806148676"
    },
    {
        "id": "167909949899623"
    },
    {
        "id": "174886349191696"
    },
    {
        "id": "100712006667258"
    },
    {
        "id": "175213309156749"
    },
    {
        "id": "173346709343609"
    },
    {
        "id": "174716912538678"
    },
    {
        "id": "128675803855924"
    },
    {
        "id": "118542568209411"
    },
    {
        "id": "173634229315784"
    },
    {
        "id": "101846976554982"
    },
    {
        "id": "156463027719289"
    },
    {
        "id": "176031265756326"
    },
    {
        "id": "123754024350820"
    },
    {
        "id": "155979611111905"
    },
    {
        "id": "118254498238441"
    },
    {
        "id": "140697295982582"
    },
    {
        "id": "159198854121771"
    },
    {
        "id": "175906602420402"
    },
    {
        "id": "112061008859341"
    },
    {
        "id": "133037513417447"
    },
    {
        "id": "162687640437649"
    }
]