{
    "use_profile": false,
    "result_count": 54138,
    "coupon_promoted": "",
    "promoted":true,
    "hide_comments": "N",
    "badge_promoted": false,
    "hide_ads": "N",
    "banner_promoted": false,
    "image": "r1FkgH0A",
    "quiz": {
        "time_limit": 0,
        "feedback": "N",
        "extra": {},
        "updated_at": "2015-08-26T09:13:25",
        "thumbnail_path": "/api/i/227/0/thumbnail",
        "id": 227,
        "special": "",
        "type2": "X",
        "title": "Днешният цитат за теб!",
        "temp_flag": "",
        "desc": "Мотивирай се от цитата си за деня!",
        "type": "C",
        "bg_color": "",
        "sns": "recommend",
        "hashtag": "quote",
        "open_at": "2015-08-26T09:13:25",
        "image2_url": "",
        "created_at": "2015-08-24T04:40:48",
        "enabled": "Y",
        "thumbnail_url": "tumblr_o3recwFcvL1uip6ezo6_500.jpg",
        "image_url": "ryHGNNAC.jpg",
        "extra_json": null
    },
    "quotes": [
        "С кои три думи може да унизите мъж? - Дръж ми чантата.",
        "Най-веселата работа в целия свят е това да си създаваме приятели.",
        "Както преди, така и сега, най-универсалният уред в едно домакинство е майката.",
        "Когато най-добрия приятел на човека е кучето, то това куче има проблем.",
        "Вярвай в мечтите, защото в тях е скрита вратата към вечността.",
        "Ако хванеш мъж за топките, сърцето и акъла му ще те последват.",
        "Човек може да изостави надеждата, тя него - никога.",
        "Браковете са създадени на небето, а се консумират на Земята.",
        "Какво остава от душата, когато престанеш да целуваш?",
        "Колко лесно е да видиш грешките на близките си. Колко трудно е да видиш своите.",
        "За добрите актьори няма лоши роли.",
        "Трябва да живеем живота си така, че дори Смъртта да се двоуми дали да ни прибере.",
        "Силата на майчинството е по-голяма от природните закони.",
        "Целувката никога не е лоша, освен ако е нежелана.",
        "Когато се научиш да вярваш в себе си, светът ще се отвори за теб и ти ще намериш своя път.",
        "Любовта е непреодолимото желание да си непреодолимо желан.",
        "Най-добрите и красиви неща на света не могат да бъдат видяни, нито докоснати... те се усещат в сърцето.",
        "Когато приятелят ти е в беда, не го питай дали можеш да направиш нещо. Помисли кое е най-доброто и го направи.",
        "Да говориш с мъж е като да се опитваш да оседлаеш крава - работиш упорито, но какъв е смисълът?",
        "Човекът, който не чете добри книги, няма предимство пред човека, който не може да ги чете.",
        "Любовта няма да те направи силен. Трябва да си силен преди да започнеш да обичаш.",
        "Любовта, която си изгубил, е единствената, която пазиш.",
        "Надеждата е значителна част от всяко удоволствие.",
        "Майчината любов е градина, в която винаги е слънчево и е пролет.",
        "Живеем с това, което имаме, но правим живота си с това, което даваме.",
        "Срамота е, че единственото нещо, което човек може да прави по 8 часа на ден, е да работи. По 8 часа на ден не може нито да яде, нито да пие, нито да прави любов.",
        "Животът на всеки е като дневник, в който искаме да напишем една история, а написваме друга.",
        "Няма да бъдеш наказан заради гнева си. Ще бъдеш наказан от собствения си гняв.",
        "Скъпоценните камъни може да са ценни, но приятелите са безценни.",
        "Щастлив е този, който се смята за щастлив. ",
        "Да си на средна възраст означава от две възможности да избереш онази, която ще ти позволи да се прибереш в къщи  по-рано.",
        "Когато изстискваш портокал, получаваш портокалов сок, защото това има във вътрешността на портокала. Същият принцип важи и за теб. Когато някой те притисне - подложи те на натиск - проявява се вътрешната ти същност. И ако тя не ти хареса, можеш да я промениш, като промениш мисленето си.",
        "Времето е илюзия. Обедното време - двойна.",
        "Майка ми имаше големи неприятности с мен, но мисля, че й харесваше.",
        "Най-красивите рокли се носят за да бъдат съблечени.",
        "Автобиографията е историята на това как човек си мисли, че е живял.",
        "Преследването на щастието е най-абсурдното нещо: Ако те преследва щастието, никога няма да го намериш. ",
        "Обичам те не само заради това какъв си ти, а заради това каква съм аз, когато съм с теб.",
        "Жените никога не губят ума си от комплименти, мъжете - винаги.",
        "В рамките на нашите мечти и стремежи, откриваме нашите възможности.",
        "Всяка минута, която човек прекарва в ядосване, пропуска 60 щастливи секунди.",
        "Ти винаги ще си ми приятел, знаеш твърде много.",
        "Във всеки истински мъж се крие дете, което иска да играе.",
        "Всъщност всеки би трябвало да е щастлив, когато загуби един спор, защото така би го приключил, получавайки  повече от това, което е имал в началото. ",
        "Който не е нетърпелив, не е влюбен.",
        "Дай му на човек да избира, па му гледай сеира.",
        "Майчинството е най-емоционалното преживяване в живота на жената.",
        "Най-добрите и красиви неща на света не могат да бъдат видяни, нито докоснати... те се усещат в сърцето.",
        "Добрият полов живот е единствената и най-ефективна защита от инфаркт.",
        "Без борба не може да има прогрес.",
        "Приятелството е хубаво не само в мрачните, но и в слънчевите дни от живота.",
        "Никога не съм виждал лице, което се усмихва, да не е било красиво.",
        "Няма тъй нещастни случаи, от които съобразителните хора да не могат да извлекат някаква полза, както няма и тъй щастливи случаи, които безразсъдните хора да не могат да преобърнат в своя вреда. - ",
        "За да получиш повече от живота, дай повече от себе си.",
        "Любовта дава светлина дори в най-тъмния тунел.",
        "Това, което прави живота интересен, е възможността да осъществиш мечтата си. ",
        "Не можеш да бъдеш щастлив, когато окръжаващите са нещастни. ",
        "Секса е божията шега със човешките същества.",
        "Тя мисли, че щастието е изтривалка, че си седи на вратата. - 3 сутринта",
        "Щастливият брак е единство между двама души, които си прощават.",
        "За да причиниш мъка на завистливците, трябва да си в добро настроение. ",
        "Трябва да си търпелив. Любовта не винаги е идеална. Тя си е просто любов.",
        "Единственото, което искам, е да защитя докторска степен в любовта.",
        "Човек може да разбира миналото си, но не трябва да живее в него.",
        "Никога не обяснявай. Пред приятели не се налага, а враговете няма да повярват.",
        "Носи усмивка и имай приятели. Мръщи се и имай бръчки.",
        "Не е нужно да ме харесваш, аз не съм фейсбук статус.",
        "Ако можеш да мечтаеш, за нещо, можеш да го постигнеш.",
        "Славата е бляскавият траур на щастието.",
        "Нека на този, който принадлежи добро бъдеще, да не губи и частица от настоящето си.",
        "Първото задължение в любовта е да се вслушваме.",
        "Гледай на живота през предното стъкло, а не през огледалото за задно виждане.",
        "Бракът е книгата, чиято първа глава е написана поетично, а останалите части са в проза.",
        "Издигни се над идеите за успех и провал - това е въпрос на преценка. Включи се в процеса и остави Вселената да се погрижи за подробностите.",
        "И сто сърца няма да са достатъчни, за да поемат цялата ми любов към теб.",
        "Няма значение какъв е моят баща. От значение е единствено какъв помня, че беше той.",
        "Докато другите си казват: “Ами ако се проваля?”, аз си казвам: “А ако успея?”",
        "Надеждата е най-добрата част от нашето богатство.",
        "Приятел е онзи, който те познава, но така или иначе те обича.",
        "Нека сърцето ти те води. То шепти. Слушай го внимателно. ",
        "Най-голямото богатство, това са човешките взаимоотношения. ",
        "Любовта е красотата на душата.",
        "От щастието хората оглупяват повече, отколкото от нещастието. ",
        "Красивата жена можеш да я целуваш без спир и нито веднъж да не попаднеш на едно и също място.",
        "Интелигентен е човек, който е открил нещо по-интересно от жената.",
        "Няма разлика между глупав и умен мъж, когато е влюбен.",
        "Който е бил щастлив в любовта, няма никакво понятие за нея. ",
        "Когато се хвана, че падам духом, затварям очите си и си предствям, енергията, която ми дават приятелите ми.",
        "Топлата усмивка е универсалния език на добротата.",
        "Има хора, които са женени...до неузнаваемост.",
        "Усмихвай се постоянно, защото никога не знаеш кога някой ще се влюби в твоята усмивка.",
        "Днес е първият ден от останалата част от живота ти. Изживей я както искаш. Ти решаваш!",
        "Секс - не се притеснявайте. Изглежда необичайно само първия път.",
        "Без човешката общност отделното човешко същество не може да оцелее.",
        "Ако на човек може да му се вярва договор не е необходим, ако не може да му се вярва - договора става излишен!",
        "Страстната целувка ускорява пулса от 72 на 120 удара в минута.",
        "Възпитавай съзнанието си да работи с велики мисли.",
        "Цялата сила идва от вътре и следователно е под нашия контрол.",
        "Никога не отказвай приятелство. Девет пъти то нищо няма да ти донесе, но десетия щедро ще ти се отплати.",
        "Както преди, така и сега, най-универсалният уред в едно домакинство е майката.",
        "Гледай на приятелите си като на снимки - избирай ги при подходяща светлина.",
        "Най-силната вода в света са женските сълзи. ",
        "Недей да пазиш добрите думи за приятелите си, след като умрат. Недей да ги пишеш върху надгробните им плочи, по-добре им ги кажи сега.",
        "Колкото по-добре танцуват мъжете, толкова по-добри са в леглото.",
        "Пътят не минава през небето. Пътят е в сърцето.",
        "Зад всяка велика жена, стои човек, който я гледа в задника.",
        "Щастието и мъката са близнаци. Остави ги да идват и да си отиват като облаците.",
        "Майките на тийнейджъри могат да разберат, защо някои животни изяждат малките си.",
        "Жените се нуждаят от повод, за да правят секс; мъжете от място.",
        "Когато вярваш в себе си, вярваш в мъдростта, която те е създала.",
        "Секс - не се притеснявайте. Изглежда необичайно само първия път.",
        "Има три важни неща в бизнеса - знание, твърдост и време.",
        "Най-важното нещо, което един баща може да направи за децата си е да обича майка им.",
        "Щастието е когато, кавото мислиш, каквото казваш и каквото си е в хармония.",
        "Ако някога се чудиш дали да целунеш красиво момиче, винаги оставяй на нея задачата да се чуди.",
        "Страстната целувка ускорява пулса от 72 на 120 удара в минута.",
        "Кучетата се смеят, но го правят с опашките си.",
        "Ако ясно можем да видим магията на едно цвете, целият ни живот ще се промени.",
        "Идеалът на земното щастие е в труда, в здравето и в природата.",
        "Твърде често подценяваме силата на докосването, усмивката, добрата дума, изслушването, искрения комплимент, или най-малкия акт на загриженост, всички те имат способността да променят живота.",
        "Мечтай за живота като за нещо прекрасно и направи от мечтите реалност.",
        "Всеки от нас вярва, че първата му любов е последна, а последната първа.",
        "Времето лети - опитай се да му подражаваш.",
        "Това, което проумях, е прекрасно. От там си правя извод, че и това, което не съм проумял, е прекрасно.",
        "Единствените хора, които правят секс през цялото време, са лъжците.",
        "Щастието не е крайната цел, а съставна нейна част. То не е неин еквивалент, а елемент.",
        "Любовта не се изразява в това да се взираме един в друг, а да гледаме в една и съща посока.",
        "Животът е кратък... изяждай си първо десерта!",
        "Моето най-добро противозачатъчно е да оставя лампите светнати.",
        "Ръката, която люлее люлката, управлява света.",
        "Моето най-добро противозачатъчно е да оставя лампите светнати.",
        "Неразбраната мечта е като неотворено писмо",
        "Майката е една,а бащата може да е всеки!",
        "Kакто свещта не може да гори без огън, така и хората не могат да живеят без духовен живот.",
        "Никой не може да изгради щастието на живота, единствено само щастието на мига.",
        "Любовта е най-мощната сила, която светът притежава, това не пречи да е и най-кротката, която можем да си представим.",
        "Прави каквото можеш, с това, което имаш, където и да си.",
        "Най-хубавото развлечение - работата.",
        "Това, което се намира зад нас, и това, което се намира пред нас не е толкова важно, в сравнение с това, което се намира вътре в нас.",
        "Животът е да се смееш, да обичаш и да живееш.",
        "Любовта е въпрос на химия, сексът - на физика.",
        "Най-лошото, което някой може да направи е да ме целуне на първата ни среща.",
        "За да запазиш вътрешното си равновесие, недей залита в никоя крайност.",
        "Дърветата в сибир са много надалече, затова кучетата там са толкова бързи.",
        "Родителите са кокалите, на които децата точат зъбите си.",
        "Вярвай в собствените си сили. Когато вярваш в тях, ставаш по-силен с всеки изминал ден.",
        "Човек може да живее 40 дни без храна, около три дни без вода, около 8 минути без въздух, но само една секунда без надежда.",
        "Тъгата наистина е нещо естествено. Тя е само един миг до радостта.",
        "Нещастието е пробен камък за характера. ",
        "Голямото съмнение в крайна сметка води до голямо пробуждане.",
        "Когато тя задряма до мен един глас в главата ми говореше: ",
        "Да говориш с мъж е като да се опитваш да оседлаеш крава - работиш упорито, но какъв е смисълът?",
        "Човек е гений, когато мечтае.",
        "Никога не съжалявай за нещо, което те кара да се усмихнеш.",
        "Мамо, когато мислите за теб са в сърцето ми, никога не съм далеч от дома.",
        "Пътят към къщата на приятел никога не е дълъг ",
        "Открадната целувка веднага губи секретността си.",
        "Работата ни пази от три велики злини: скука, порок и желания.",
        "Върбата се подчинява на вятъра и благоденства, докато един ден се превърне в много върби - стена срещу вятъра.",
        "Не прави секс, човеко! Това води до целувки, а скоро ще трябва и да си говорите...",
        "Истинското приятелство е като здравето, оценяваш го едва като го загубиш.",
        "Не живей в миналото, не мечтай за бъдещето, концентрирай ума си върху настоящия момент.",
        "Майчините ръце са направени от нежност и децата спят спокойно на тях.",
        "Приятел е този, който знае всичко за теб и все още те харесва.",
        "Кажи ми кои са приятелите ти, за да ти кажа кой си.",
        "Когато се хвана, че падам духом, затварям очите си и си предствям, енергията, която ми дават приятелите ми.",
        "Когато животът ти даде сто причини да заплачеш, му дай да разбере, че имаш хиляда причини да се усмихнеш.",
        "Приятелство основано на бизнеса е по-добро от бизнес, основан на приятелство.",
        "Човек никога не е толкова щастлив, нито толкова нещастен колкото си въобразява.",
        "Малко по-добре е да се надяваш, отколкото да не го правиш.",
        "Светът е кръговрат. Всеки е отговорен за действията си. Всичко се връща.",
        "Вярвам, че въображението е по-могъщо от знанието, че мита е по-могъщ от историята, че мечтите са по-силни от фактите.",
        "Не се страхувай от неизвестното,  може да е по-хубаво от настоящето",
        "Най-великите ни изживявания са нашите най-тихи мигове.  ",
        "Надеждата е котвата на света.",
        "Благодарение на твоята усмивка, животът става по-красив.",
        "Когато животът ти даде лимон, си направи лимонада. След това помисли как да я продаваш по пет долара чашата.",
        "Всички работим заедно, в това е тайната на успеха.",
        "Следвай интуицията си, придържай се към възгледите си и никога не се страхувай да поемаш рискове.",
        "Танците са вертикално изражение на хоризонтални желания.",
        "За щастието няма значение колко имаме, а колко удоволствие изпитваме.",
        "Дарявай щастие, но не искай от другите да ти отвърнат.",
        "Никога не съм усещал любовта, винаги съм съдил.",
        "Колкото е по-труден спора, толкова е по-ценна победата.",
        "Обичайте се и ще бъдете щастливи. Толкова е просто и толкова трудно.",
        "Това, което ни изглежда като горчиви изпитания, често са прикрити благословии.",
        "Целта на живота ми е да стана толкова невероятен, колкото моето куче си мисли, че съм.",
        "Алкохолът - причината и решението на всички житейски проблеми.",
        "Една окуражаваща усмивка в подходящия момент може да подейства както слънчевата светлина на затворено цвете. Тя може да бъде повратна точка за всяко житейско изпитание.",
        "Майката е една,а бащата може да е всеки!",
        "Ако искате света, трябва да се биете за него.",
        "Всеки може да е съпричастен със страданията на приятел, но е необходима много фина душа, за да си съпричастен и с успехите му.",
        "Сърце, което обича, е винаги младо.",
        "Тайната на необикновените хора в повечето случаи е нищо друго освен резултатите от действията им.",
        "Щастлив е онзи, който смело е готов да защити каквото обича.",
        "Майката е тази, към която се обръщаме, когато имаме неприятности.",
        "Без съмнение, най-добре е да обичаме мъдро, но да обичаме глупаво е по-добре от това изобщо да сме неспособни да обичаме.",
        "За да мечтаеш не е нужно небе пълно със звезди. Намери тази, която блести за теб.",
        "Който е тръгнал за любов, открива, че хиляда мили са по-кратки от една.",
        "Само този, който върви с отворени очи през живота вижда своите възможности.",
        "Има много начини да вървиш напред и само един да стоиш на място.",
        "Най-ценната любов е тази, която издържа на съда на времето.",
        "Да обичаш, когато те обичат е човешко! Да мразиш, когато те обичат е жестоко! Да обичаш, когато те мразят е Велико!",
        "Приятелството ще е младо и след половин век; страстта отминава в края на третия месец.",
        "Любовта е красотата на душата.",
        "Изкуството е най-възвишената радост, която човек дарява на себе си. ",
        "Познах добро и зло, грях и добродетел, правда и неправда; съдих и ме съдиха; минах през раждане и смърт, радост и мъка, рай и ад; и накрая разбрах, че аз съм във всичко и всичко е в мен.",
        "Щастието: приятно усещане, произтичащо от съзерцаването на  мизерията на друг.",
        "Най-хубавото огледало е стария приятел.",
        "Наистина интересно в часовете по сексуално образование става едва, когато човек получава домашно.",
        "Красотата ще спаси света.",
        "Мъжете винаги искат да бъдат първата любов на жените, жените, да бъдат последния романс на мъжете.",
        "Усмихни се на някой непознат. ",
        "Светът е мъжки и вие, мъжете, можете да си го вземете.",
        "Целувката може да е запетая, въпросителен или удивителен знак. Това е основна граматика, която всяка жена би трябвало да знае.",
        "Ако си приятел със себе си, никога няма да бъдеш сам.",
        "Целувката е нещо, за което човек има нужда още и от двете си ръце.",
        "Няма заместител на здравата работа.",
        "Приятелството е хубаво не само в мрачните, но и в слънчевите дни от живота.",
        "Не е достатъчно някой да бъде добър човек, ако не върши нищо.",
        "Има два вида добри мъже - мъртвите и неродените.",
        "Любовта е непреодолимото желание да си непреодолимо желан.",
        "Няма да разбереш смисъла на живота, ако питаш някой друг. Единствения начин да получиш правилния отговор е да попиташ себе си.",
        "Когато престанеш да мечтаеш, преставаш и да живееш.",
        "Да бъдеш жена е ужасно трудна задача, тъй като тя се състои основно в работа с мъже.",
        "Какво търсят децата? Прегръдка, добра дума, докосване, някой да им разкаже история, да се усмихнат и да споделят с някого.",
        "Умът е всичко - каквото мислиш, това получаваш.",
        "Винаги има борба между баща и син, когато единия се стреми към силата, а другия към независимостта.",
        "Не бъди незаменим, защото ако не можеш да бъдеш заменен, не можеш да бъдеш и повишен.",
        "Влюбването е поривът на сърцето да вземеш, докато обичта е посвещението на ума да отдадеш.",
        "Решението да целунеш някого за първи път е най-съдбоносното в една любовна история. Това променя отношенията на двама души много повече, отколкото дори самата раздяла, защото тази целувка е един вид раздяла.",
        "Ние живеем с възхищение, надежда и любов.",
        "Усмивката...е второто най-добро нещо, което можеш да направиш с устните си.",
        "Какво ви става момчета? Един поглед на блондинка ви сваля три стъпала надолу по пътя на еволюцията.",
        "Щастието е като здравето - ако не го забелязваш, значи го имаш. ",
        "Когато делим щастието на две, го умножаваме.",
        "Жена може да каже повече неща на един дъх, отколкото мъж по време на проповед.",
        "Мечтите са днешните отговори на утрешните въпроси.",
        "Да бъдеш милостив и добър не е белег на слабост и отчаяние, а проява на сила и решителност.",
        "Заговори, че да те видя. ",
        "Светът е кръговрат. Всеки е отговорен за действията си. Всичко се връща.",
        "Лесен начин да обичаш нещо е да разбереш, че то може да бъде загубено.",
        "Целувките са по-добра орис от мъдростта.",
        "Twenty years from now you will be more disappointed by the things that you didn't do than by the ones you did do. So throw off the bowlines. Sail away from the safe harbor. Catch the trade winds in your sails. Explore. Dream. Discover.",
        "Сексът е спорт с контакт между две тела. Безопасно е да гледаш, но много по-забавно да участваш.",
        "Целувка без прегръдка е като цвете без аромат.",
        "Ние живеем с възхищение, надежда и любов.",
        "Забавно е да правиш невъзможното.",
        "Ако няма къде да отидеш, ела на себе си.",
        "Пътят не минава през небето. Пътят е в сърцето.",
        "Надеждата е последното нещо, което умира в човека, и макар да бъде изключително измамна, е доброто, което ни придружава в пътуването ни през живота, и прави малко по-лесен и по-приятен пътя до края на нашето пътешествие.",
        "Идеалът на земното щастие е в труда, в здравето и в природата.",
        "Усмивката е език, който дори бебетата разбират.",
        "Щастлив е бащата, чието дете намира опитите му да го забавлява, за забавни.",
        "Целувките са като да пиеш солена вода. Колкото повече пиеш, толкова по-жаден ставаш.",
        "Никой не обича жена защото тя е красива или грозна, глупава или интелигентна. Ние обичаме, защото обичаме.",
        "Един ден в безпокойство е много по изтощителен от един ден прекаран в работа.",
        "Усмивките са най-голямата инвестиция: колкото повече събираш, толкова по-добре се чувстваш."
    ],
    "share": "Сподели във Фейсбук"
}
