{
    "use_profile": false,
    "result_count": 671645,
    "choices": [],
    "image": "HJk_U5Jyx",
    "promoted":true,
    "questions": [{
        "extra": {
            "sample-input": "Vonvon"
        },
        "text": "Please enter your name.",
        "number": 1,
        "image_url": "",
        "extra_json": "{\"sample-input\": \"Vonvon\"}",
        "quiz_id": 175,
        "type": "U",
        "id": 613
    }],
    "coupon_promoted": "",
    "hide_comments": "N",
    "badge_promoted": false,
    "hide_ads": "N",
    "banner_promoted": false,
    "quiz": {
        "time_limit": 0,
        "feedback": "N",
        "extra": {},
        "updated_at": "2015-08-21T11:32:11",
        "thumbnail_path": "/api/i/175/0/thumbnail",
        "id": 175,
        "special": "",
        "type2": "X",
        "title": "Топ 5 причини заради които приятелите те обичат",
        "bg_image_url": "http://lh3.googleusercontent.com/2m8_fw8oh7ovOgiFGLfo6csUhC2yPMwt1TZsQjvnEgzLzm5JVaYrbDMySxeBs9yOBMcAYZBRUW9BPRqFeMctv5sAeIXSou9Y3IU=s0",
        "temp_flag": "",
        "desc": "Чара ти е непобедим!",
        "type": "C",
        "bg_color": "",
        "sns": "recommend",
        "hashtag": "\uc0ac\ub791\ubc1b\ub294\uc774\uc720",
        "open_at": "2015-07-24T01:41:48",
        "image2_url": "",
        "created_at": "2015-07-14T04:13:02",
        "enabled": "Y",
        "thumbnail_url": "http://lh3.googleusercontent.com/sCQF9htVx087kedlcO7t0fujsbHuZP7IalKCO1SQy4V5VJW9I3BZV0a-m7-4pgcuPsBO8JI48ha43uO91On2=s0",
        "image_url": "http://lh3.googleusercontent.com/qtBvUYxJ9JWrDHqWO68hj_kAi4slZKqBzTOFHdqBluHF_tIyhFRGL2gAu0ICSh9bYuC4Qk9CAu5nL5YUZBzmvobUMVjej7weeg=s0",
        "extra_json": null
    },
    "quotes": ["Красив/а",
        "заслужаващ доверие",
        "верен",
        "талантлив/а",
        "грижовен/на",
        "уверен/а",
        "сладък/а",
        "забавен/на",
        "знае как да се забавлява"
    ],
    "share": "Сподели във Фейсбук"
}
