{
  "_id": "4d0cd7baa1f7f",
  "promoted":true, "type":"bg", "hrev2": "1-443bfec7acc3a0ed36fc4cc8a4e61b40",
  "questions": [
    {
      "1": "",
      "2": "",
      "3": "",
      "4": "",
      "5": "",
      "6": "",
      "question": ""
    },
    { 
      "1": "-864197532",
      "2": "864197532",
      "3": "110000000",
      "4": "никое от изброените",
      "5": "0",
      "6": "12",
      "question": "колко е 123456789-987654321"
    },
    {
      "1": "951,9166666666667",
      "2": "9519166666666667",
      "3": "9519,166666666667",
      "4": "нито едно от изброените",
      "5": "0",
      "6": "12",
      "question": "колко е 45692:48"
    },
    {
      "1": "1874",
      "2": "-1874",
      "3": "никое от изброените",
      "4": "незнам",
      "5": "какжо е  модол",
      "6": "12",
      "question": "кои е модола на -1874 "
    },
    {
      "1": "+2841",
      "2": "-2841",
      "3": "никое",
      "4": "неснам",
      "5": "какжо е модол",
      "6": "12",
      "question": "кои е модола на +2841"
    },
    {
      "1": "45998653654474",
      "2": "4,5998653654474",
      "3": "никое",
      "4": "незнам",
      "5": "нямам си предстажа",
      "6": "12",
      "question": "колко е 7 на 28 степен"
    },
    {
      "1": "",
      "2": "",
      "3": "",
      "4": "",
      "5": "",
      "6": "",
      "question": ""
    }
  ],
  "appname": "как си с математиката",
  "description": "я да видим",
  "quiz": "1",
  "slug": "quizimage",
  "share": "Сподели във Фейсбук",
  "image": "",
  "results": [
    {
      "short": "само 6",
      "full": "бражво",
      "image": ""
    },
    {
      "short": "5",
      "full": "много добре",
      "image": ""
    },
    {
      "short": "4",
      "full": "добре",
      "image": ""
    },
    {
      "short": "3",
      "full": "средно",
      "image": ""
    },
    {
      "short": "2",
      "full": "лошо",
      "image": ""
    },
    {
      "short": "",
      "full": "",
      "image": ""
    }
  ]
}