{
  "_id": "4d1df36bdaf50",
  "promoted":true, "type":"bg", "hrev2": "1-0ea28d1ba24b443fcaa4250da82efa24",
  "questions": [
    {
      "1": "",
      "2": "",
      "3": "",
      "question": ""
    },
    {
      "1": "Да",
      "2": "Не много често,но излизаме",
      "3": "Не",
      "question": "Излизате ли често само двамата?"
    },
    {
      "1": "Да винаги",
      "2": "Не защото ме е срам",
      "3": "Не",
      "question": "Гледата ли се в очите?"
    },
    {
      "1": "Да много често",
      "2": "Не се случва често",
      "3": "Само веднаж",
      "question": " Прави ли ви комплименти?"
    },
    {
      "1": "Не в годината веднаж се сеща да спомене някое име",
      "2": "Да но не често ",
      "3": "Да",
      "question": "Говори ли често за бивши?"
    },
    {
      "1": "Няма вразка която да варви по мед и масло но не се караме често",
      "2": "Ми вазникват дразги но не се задалбочават кои знаи колко",
      "3": "На всеки кръгал час :)",
      "question": "Карате ли се често?"
    },
    {
      "1": "Да! Само да чуе дума срещу мен1",
      "2": "Когато на истина си заслужава",
      "3": "От време на време",
      "question": "Защитава ли те?"
    }
  ],
  "appname": "Обича ли те ?",
  "description": "",
  "quiz": "1",
  "slug": "quizimage",
  "share": "Сподели във Фейсбук",
  "image": "",
  "results": [
    {
      "short": "Обича те ",
      "full": "Трудно ти го показва, но той много те обича",
      "image": ""
    },
    {
      "short": "Симпатична си му",
      "full": "Има някакви чувства но не са се преварнали в обич",
      "image": ""
    },
    {
      "short": "...",
      "full": "Не те обича но не се отчайвай имаш шанс",
      "image": ""
    }
  ]
}