{
  "_id": "4d2220fbf0223",
  "promoted":true, "type":"bg", "hrev2": "1-1a7585f04b9ac5426bda24906e27811c",
  "questions": [
    {
      "1": "",
      "2": "",
      "3": "",
      "question": ""
    },
    {
      "1": "само в обедните почивки",
      "2": "само в обедните не пия",
      "3": "само по време на работа",
      "question": "Фиркате ли преди работа?"
    },
    {
      "1": "на алкохола? НЕ!",
      "2": "няма с какво да си преглъщам хапчетата",
      "3": "у нас вода не пиеме",
      "question": "Ще кажете ли \"Не на алкохола\"?"
    },
    {
      "1": "епа аз тама си живееме",
      "2": "аз пари за курви не давам, тфа найш колко водки са?",
      "3": "ходихме от училище на ЕКСссс-кур-зия",
      "question": "Били ли сте в изтрезвителното?"
    },
    {
      "1": "направо от дамаджаната",
      "2": "от маркуча",
      "3": "от казана, ракижжжййя съм",
      "question": "От чашка или от бутилка пиете?"
    },
    {
      "1": "продължавам да пия",
      "2": "кат изгрее луната, лягам на друга пейка",
      "3": "са изззззсирам кат за последно",
      "question": "На сутринта:"
    },
    {
      "1": "аз съм глухоням",
      "2": "че тя повече от мене пие бе!",
      "3": "я не панимает",
      "question": "Жената ви казва да спрете пиенето а вие:"
    }
  ],
  "appname": "Тест за алкохолизъм или до каква степен сте пиянде?!.",
  "description": "Това е малко сладко тестче за алкохол ... Алкохола е вредно нещо...утре и вдруги ден стават 2 дни откак не пия...",
  "quiz": "1",
  "image": "",
  "slug": "quizimage",
  "share": "Сподели във Фейсбук",
  "results": [
    {
      "short": "Вие сссссте си ибал майката...",
      "full": "Намалете малко разходите за хляб, свиийте семейния бюджет, защото все трезвен ще ходите...",
      "image": ""
    },
    {
      "short": "Кфффффффоссстаа тука бе?!",
      "full": "Увеличете разходите за алкохол, 4 промила алкохол в кръвта сте си чиста проба трезвен като краставичка гъз...",
      "image": ""
    },
    {
      "short": "Малеееееееее",
      "full": "Увеличете кривата на търсене на алкохола, намалете предлагането..на почерпки, за да максимизирате печалбата измерена в промили...",
      "image": ""
    }
  ]
}