{
  "_id": "4d221aed64dcb",
  "promoted":true, "type":"bg", "hrev2": "1-ed7c713b4a15f0dccf08917eb58db97c",
  "questions": [
    {
      "1": "",
      "2": "",
      "3": "",
      "question": ""
    },
    {
      "1": "започва разговор и вкарва доста лични теми",
      "2": "по-скоро е мълчалив",
      "3": "приказваме си по общи теми",
      "question": "Когато се видите той:"
    },
    {
      "1": "получаваш SMS почти веднага след като сте се разделили",
      "2": "изпраща ти съобщение или ти звънва след ден-два",
      "3": "всъщност не ти звънва",
      "question": "Даваш му номера на телефона си и:"
    },
    {
      "1": "ти звъни с покана за среща",
      "2": "ти изпраща букет цветя",
      "3": "ти говори за това как е скъсал с предишната си приятелка",
      "question": "Скоро след като сте се запознали той:"
    },
    {
      "1": "ти говори за секс и интимности",
      "2": "някак разговорът между вас е труден",
      "3": "е по-скоро разсеян и неясен, като малко дете, което не знае на къде да поеме",
      "question": "Още на първата среща:"
    }
  ],
  "appname": "Пада ли си той по теб?",
  "description": "Харесва ли те? Разчиташ ли правилно знаците му или просто се отплесваш по него, защото много си хлътнала. Дали пък всичко не е само една илюзия и той дори не знае, че си пада по теб? Ето един забавен тест, който само след няколко въпроса ще ти даде светлина по важния за теб въпрос - пада ли си той по теб?",
  "quiz": "1",
  "slug": "quizimage",
  "share": "Сподели във Фейсбук",
  "image": "",
  "results": [
    {
      "short": "Луд по теб!!!",
      "full": "Той е луд по теб и наистина има шанс това да е една обещаваща и красива връзка!",
      "image": ""
    },
    {
      "short": "Хлътнал е по теб!",
      "full": "Има голяма вероятност той наистина да е хлътнал по теб. Дай му още малко време и го проучи \"от близо\". :)",
      "image": ""
    },
    {
      "short": "Хлътнал е по теб!",
      "full": "Има голяма вероятност той наистина да е хлътнал по теб. Дай му още малко време и го проучи \"от близо\". :)",
      "image": ""
    }
  ]
}