{
  "_id": "4d238fad32585",
  "promoted":true, "type":"bg", "hrev2": "1-73caf576cf7467ac1179a46adff8d625",
  "questions": [
    {
      "1": "",
      "2": "",
      "3": "",
      "4": "",
      "question": ""
    },
    {
      "1": "Испания",
      "2": "Англия",
      "3": "Гърция",
      "4": "Италия",
      "question": "Коя държава предпочитате?"
    },
    {
      "1": "Атина,Истамбул,Чикаго",
      "2": "Милано,Лондон,Ню Йорк",
      "3": "Вашингтон,Париж,Лас Вегас",
      "4": "Маями,Ел Ей,Рим",
      "question": "Коя поредица от градове избирате?"
    },
    {
      "1": "Красива къща с гледка към морето",
      "2": "Хотел 5*",
      "3": "Къща с басейн и спа център",
      "4": "Луксозно имение",
      "question": "Каква къща би ти подхождала?"
    },
    {
      "1": "Водка с портокалов сок",
      "2": "Мартини",
      "3": "Коктейл",
      "4": "Шампанско",
      "question": "Кое избираш?"
    },
    {
      "1": "черен",
      "2": "рус",
      "3": "светло кестеняв",
      "4": "тъмно кестеняв",
      "question": "Какъв цвят е косата ти?"
    },
    {
      "1": "бмв",
      "2": "мини купър",
      "3": "мерцедес с шофьор",
      "4": "джип, но няма да го караш сама, а ще те воьи шофьор",
      "question": "Каква кола би карала?"
    }
  ],
  "appname": "Какъв тип жена си и кой мъж ти подхожда най-много?",
  "description": "Ще разбереш що за жена си, дали ти подхожда обикновено момче, което да обичаш или милионер, чиито пари да обичаш...",
  "quiz": "1",
  "image": "",
  "slug": "quizimage",
  "share": "Сподели във Фейсбук",
  "results": [
    {
      "short": "Обикновено момче",
      "full": "Ти си добра и чувствителна.Не е нужно човекът до теб да е известен или богат, той просто трябва да те обича!Искаш да прекарвате времето си заедно, спoделяйки любовта и уюта на семейния дом.",
      "image": ""
    },
    {
      "short": "Футболист",
      "full": "Ти си лигава госпожица, която цял живот е мечтала за титлата \"Футболна съпруга\". Мъжът до теб ще е успял в кариерата си, с цел да задоволи всеки твой каприз.С отбора на футболните съпруги ще обикаляте моловете, докато мъжете ви се потят след топката.",
      "image": ""
    },
    {
      "short": "Бизнесмен",
      "full": "Ти си добра и умна, защото си успяла да привлечеш вниманието на заможен бизнесмен. Тежка е ролята на тази съпруга, която вероятно ще понесе доста изневери, но е сигурно, че ще живееш лъскавия си живот и то по добър начин.",
      "image": ""
    },
    {
      "short": "Мафиот",
      "full": "Ти си красавица, която може да се задоволи само с най-доброто. Като съпруга на мулти-милионер от теб се изисква да водиш малко по-екстремен живот.Освен красивите яхти и безбройните пътешествия в чужбина, ще ти се наложи да се криеш в бронирани джипове и да ходиш с дълга делегация, включваща поне 10 охранителя, които да се грижат за безопасността на мафиотската съпруга!",
      "image": ""
    }
  ]
}