{
  "_id": "4d2898526fbbb",
  "promoted":true, "type":"bg", "hrev2": "1-d43c708ae830965288b6ee26ed7aa457",
  "questions": [
    {
      "1": "",
      "2": "",
      "question": ""
    },
    {
      "1": "9",
      "2": "5",
      "question": "Колко са планетите в Слънчевата система?"
    },
    {
      "1": "360 грама.",
      "2": "542 грама.",
      "question": "В един литър вода колко грама сол може да се разтвори?"
    },
    {
      "1": "От вещества наречени Фреони,който се съдържат в дезодорантите и хладилниците.",
      "2": "От Въглеродния диоксид.",
      "question": "От какво се предизвикват Озоновите Дупки?"
    },
    {
      "1": "1",
      "2": "10 000",
      "question": "В 200 000 въздушни молякули колко молекули на хелия могат да се срещнат?"
    },
    {
      "1": "-196 °C",
      "2": "-120 °C",
      "question": "При каква температура АЗОТЪТ се втечнява?"
    },
    {
      "1": "-183°C",
      "2": "-142°C",
      "question": "При каква температура КИСЛОРОДЪТ се втечнява?"
    },
    {
      "1": "Не",
      "2": "Да",
      "question": "Олиото може ли да се разтвори във вода?"
    },
    {
      "1": "Нееднородни смеси",
      "2": "Еднородни смеси",
      "question": "Повечето храни са:"
    },
    {
      "1": "1540°C",
      "2": "1782°C",
      "question": "При каква температура желязото се втечнява?"
    },
    {
      "1": "0°C",
      "2": "2°C",
      "question": "Колко градуса е температурата на ледът?"
    }
  ],
  "appname": "Как си с предмета Човекът и Природата ?",
  "description": "Я да проверим какво знаете.",
  "quiz": "1",
  "slug": "quizimage",
  "share": "Сподели във Фейсбук",
  "image": "",
  "results": [
    {
      "short": "Отлично !",
      "full": "Поздравления,ти наистина си отничник/чка по Човекът и Природата !",
      "image": ""
    },
    {
      "short": "Много си зле !",
      "full": "Ти наистина имаш нужда от помощ по Човекът и Природата !",
      "image": ""
    }
  ]
}