{
  "_id": "4d2cc17c6c92d",
  "promoted":true, "type":"bg", "hrev2": "1-ad480574955acd6726e8034a4c01b10e",
  "questions": [
    {
      "1": "",
      "2": "",
      "3": "",
      "question": ""
    },
    {
      "1": "   Ще посоча на виновника драскотината и ще си тръгна ",
      "2": "   ще се развикам и ще поискам парична компенсация ",
      "3": "   ще ремонтирам колата за своя сметка ",
      "question": "В автомивката ожулват колата ви, как ще постъпите: "
    },
    {
      "1": "   ще мърморя на ум ",
      "2": "   веднага ще направя забележка и ще го накарам да застане на мястото си ",
      "3": "   ще махна с ръка и ще отида на друга каса ",
      "question": "Ако сте на опашка в хранителен магазин и някой се опита да мине пред вас, как ще реагирате: "
    },
    {
      "1": "   ще поканя близки и приятели на чашка ",
      "2": "   ще викам от радост ",
      "3": "   ще ми стане приятно ",
      "question": "На състезание излизате победител, каква ще е реакцията ви: "
    },
    {
      "1": "   ще сляза от колата и ще го наругая ",
      "2": "   ще си промърморя нещо ",
      "3": "   ще продължа, след като е минала опасността ",
      "question": "Ако пешеходец внезапно изскочи пред колата ви, как ще постъпите: "
    }
  ],
  "appname": "Умеете ли да се контролирате?  ",
  "description": "",
  "quiz": "1",
  "image": "",
  "slug": "quizimage",
  "share": "Сподели във Фейсбук",
  "results": [
    {
      "short": "",
      "full": "Понякога много малък повод може да ви извади от релси и да изгубите контрол над поведението си. След минутка съжалявате, че сте избухнали. Не е зле да преброите до 10 и после да отворите уста.\r\n",
      "image": ""
    },
    {
      "short": "",
      "full": "В повечето случаи контролирате реакциите си спрямо другите, дори към тези, които по принцип ви дразнят. Умеете да разговаряте спокойно.\r\n",
      "image": ""
    },
    {
      "short": "",
      "full": "Трудно може някой да ви изкара от кожата. Владеете се дори в трудни ситуации. Ако някой успее да ви изнерви, вие страдате мълчешком.",
      "image": ""
    }
  ]
}