{
  "_id": "4d341b6d6f51e",
  "promoted":true, "type":"bg", "hrev2": "1-7b053d76e1c96383cd61677a51eae547",
  "questions": [
    {
      "1": "",
      "2": "",
      "3": "",
      "4": "",
      "5": "",
      "6": "",
      "7": "",
      "8": "",
      "question": ""
    },
    {
      "1": "купонджия",
      "2": "тартор",
      "3": "забавен",
      "4": "лъжец",
      "5": "обичлив",
      "6": "маниак във Facebook",
      "7": "Хладнокръвен",
      "8": "момиче за всичко",
      "question": "Какъв си ти?"
    },
    {
      "1": "да",
      "2": "не много",
      "3": "обожавам",
      "4": "долу-горе",
      "5": "мии понякога",
      "6": "често",
      "7": "никога",
      "8": "ако ми остане време",
      "question": "Обичаш ли да слушаш музика?"
    }
  ],
  "appname": "Коя песен е за теб?",
  "description": "Разбери коя е твоята песен",
  "quiz": "1",
  "slug": "quizimage",
  "share": "Сподели във Фейсбук",
  "image": "",
  "results": [
    {
      "short": "Галена-На две големи",
      "full": "",
      "image": ""
    },
    {
      "short": "Анелия-Раздялата",
      "full": "",
      "image": ""
    },
    {
      "short": "Андреа-Късай етикета",
      "full": "",
      "image": ""
    },
    {
      "short": "Теодора-Моят номер",
      "full": "",
      "image": ""
    },
    {
      "short": "Justin Bieber-Love me",
      "full": "",
      "image": ""
    },
    {
      "short": "Гергана-Facebook",
      "full": "",
      "image": ""
    },
    {
      "short": "Eлена-Не пускай",
      "full": "",
      "image": ""
    },
    {
      "short": "Цветелина Янева-Момиче за всичко",
      "full": "",
      "image": ""
    }
  ]
}