{
  "_id": "4d37514bbe77a",
  "promoted":true, "type":"bg", "hrev2": "1-5216cff5c66e399839c9b937d4787b16",
  "questions": [
    {
      "1": "",
      "2": "",
      "3": "",
      "question": ""
    },
    {
      "1": " винаги имате точна представа ",
      "2": " имате смътна представа ",
      "3": " никога не сте наясно ",
      "question": "За състоянието на вашите финанси:"
    },
    {
      "1": " гледате я, но размисляте дали наистина ви трябва ",
      "2": " ако в момента имате възможност, купувате я ",
      "3": " веднага я вземате, дори с пари назаем ",
      "question": "Щом видите дреха, която много ви харесва: "
    },
    {
      "1": " тръгвате по магазините да търсите подходящ подарък ",
      "2": " търсите оригинален подарък ",
      "3": " купувате в последния момент нещо скъпо ",
      "question": "Щом наближи рожденният ден на ваш близък: "
    },
    {
      "1": " не правите ",
      "2": " случва се, ако много ви хареса нещо ",
      "3": " почти всички подаръци са направени просто така ",
      "question": "Подаръци просто така: "
    },
    {
      "1": " се отнасяте с предубеждение ",
      "2": " позволявате си понякога ",
      "3": " смятате, че това е най-добрата форма, защото можете да имате всичко бързо, а пък после ще видим ",
      "question": "Към вещите на изплащане: "
    },
    {
      "1": " да спестявате ",
      "2": " да приемате нещата по-философски ",
      "3": " да се отнасяте към живота по-лекомислено ",
      "question": "Живее се веднъж! Това ви кара: "
    }
  ],
  "appname": "РАЗТОЧИТЕЛНИ ЛИ СТЕ?",
  "description": "",
  "quiz": "1",
  "slug": "quizimage",
  "share": "Сподели във Фейсбук",
  "image": "",
  "results": [
    {
      "short": "",
      "full": "Вие сте много спестовен човек. Обичате да се чувствате осигурени – това ви създава чувство на безопасност. Давате пари на заем, но не на всеки, и следите да ви се върнат в уговорения срок.",
      "image": ""
    },
    {
      "short": "",
      "full": "Без да си отказвате малки удоволствия, не сте зависими от вещите. Съумявате да имате най-доброто за сравнително малко пари. С вас се живее приятно.\r\n",
      "image": ""
    },
    {
      "short": "",
      "full": "Вие сте истински разсипник. Доставя ви удоволствие да пилеете пари просто така. Проявявате удивително лекомислие, но често сам страдате от това.",
      "image": ""
    }
  ]
}