{
  "_id": "4d3883a646c4b",
  "promoted":true, "type":"bg", "hrev2": "1-b24d8b3f85019688d33b3d86e636de66",
  "questions": [
    {
      "1": "",
      "2": "",
      "3": "",
      "question": ""
    },
    {
      "1": "интересни",
      "2": "трудни за разбиране",
      "3": "ужасни",
      "question": "За новите течения в музиката мислите, че са:"
    },
    {
      "1": "че и за вас е забавно",
      "2": "умният човек взема по нещо от всичко",
      "3": "че е смешен",
      "question": "Ако възрастен човек гледа анимационен филм, вие си мислите:"
    },
    {
      "1": "са ваши приятели",
      "2": "ви поздравяват учтиво",
      "3": "никога не поздравяват",
      "question": "Съседските деца:"
    },
    {
      "1": "се смеете на глас",
      "2": "се усмихвате, защото е по-прилично",
      "3": "мислите, че той е несериозен човек",
      "question": "Когато някой разказва нещо смешно, вие:"
    },
    {
      "1": "търсите приятелите си по телефона, за да споделите",
      "2": "тананикате или си пускате музика",
      "3": "веднага се заемате с решаването на следващия проблем",
      "question": "Когато сте в къщи и ви се е случило нещо много хубаво:"
    },
    {
      "1": "ярки",
      "2": "пастелни",
      "3": "тъмни",
      "question": "Какви цветове предпочитате:"
    },
    {
      "1": "красив",
      "2": "богат",
      "3": "добър",
      "question": "Човекът, в който бихте се влюбили, трябва да бъде:"
    }
  ],
  "appname": "Млада ли е душата ви?",
  "description": "",
  "quiz": "1",
  "slug": "quizimage",
  "share": "Сподели във Фейсбук",
  "image": "",
  "results": [
    {
      "short": "",
      "full": "Каквото и да е възрастта на тялото ви, вие носите душа на дете. Някои ви гледат с насмешка, но това не трябва да ви притеснява. Често хора с млади души остават младолики до дълбока старост и то е, защото наистина я доживяват.",
      "image": ""
    },
    {
      "short": "",
      "full": "Вие сте златната среда. Възрастните ви уважават, а децата с удоволствие играят с вас. Ще се чувствате винаги прекрасно, ако умеете да балансирате мъдростта на възрастния с безкористното дете у вас.",
      "image": ""
    },
    {
      "short": "",
      "full": "Вие сте изключително сериозен човек. Не сте ли се замисляли, че понякога е добре да се отпуснете, да действате по импулс, а не чак толкова премерено. Знаете как става това - та нали сте били дете преди да пораснете толкова много.",
      "image": ""
    }
  ]
}