{
  "_id": "4d39ec65ca35e",
  "promoted":true, "type":"bg", "hrev2": "1-266343fe1394a454abd83dd8bc3a6fe8",
  "questions": [
    {
      "1": "",
      "2": "",
      "3": "",
      "question": ""
    },
    {
      "1": "с нищо няма да покажа, че не го харесвам",
      "2": "няма да мога да скрия разочарованието си",
      "3": "ще кажа на право, че напразно са хвърлени пари",
      "question": "Ако са ви подарили подарък, който не харесвате:"
    },
    {
      "1": " никога",
      "2": " старая се да не забелязвам",
      "3": "често моите приказки са повод за скандали",
      "question": "Правите ли бележки по адрес на вашата \"половинка\":"
    },
    {
      "1": "спокойно ще се опитам да му помогна",
      "2": "ще му кажа да учи, а не да играе",
      "3": "ще му се скарам, дори и да съжалявам след това",
      "question": "Как ще постъпите, ако детето ви има проблеми в училище и изостава по някой предмет:"
    },
    {
      "1": "не, но се опитвам да му намекна елегантно",
      "2": "понякога",
      "3": "направо казвам какво мисля",
      "question": "Когато вътрешно не приемате нарежданията на прекия ви шеф, казвате ли му го в очите:"
    }
  ],
  "appname": "Тактични ли сте?  ",
  "description": "",
  "quiz": "1",
  "slug": "quizimage",
  "share": "Сподели във Фейсбук",
  "image": "",
  "results": [
    {
      "short": "",
      "full": "Тактичността е част от вашата същност. Вярвате, че с такт и чар винаги може да се постигне целта.\r\n",
      "image": ""
    },
    {
      "short": "",
      "full": "Държите златната среда. Имате чувство за такт и го използвате, когато пожелаете. Умеете да лавирате според случая. Склонни сте и да отстъпите.\r\n",
      "image": ""
    },
    {
      "short": "",
      "full": "Тактичността е част от вашата същност. Вярвате, че с такт и чар винаги може да се постигне целта.\r\n",
      "image": ""
    }
  ]
}