{
  "_id": "4d39e7e66876d",
  "promoted":true, "type":"bg", "hrev2": "1-1968c88ef67e21f7360adb624a76930e",
  "questions": [
    {
      "1": "",
      "2": "",
      "3": "",
      "question": ""
    },
    {
      "1": "да, но само като бижу",
      "2": "да, вдъхва ми сигурност",
      "3": "не",
      "question": "Носите ли талисман?"
    },
    {
      "1": "мисля, че е невъзможно",
      "2": "не е изключено",
      "3": "да",
      "question": "Вярвате ли в прераждането?"
    },
    {
      "1": "да, почти винаги",
      "2": "не, не ме интересува",
      "3": "понякога, за развлечение ",
      "question": "Питате ли новите си познати за зодията им?"
    },
    {
      "1": "не ми се е случвало",
      "2": "от време на време",
      "3": "често",
      "question": "Познато ли ви е усещането, че вече сте преживели определена ситуация?"
    },
    {
      "1": "това е телепатия",
      "2": "чисто съвпадение",
      "3": "може би съм го възприела предварително с подсъзнанието си",
      "question": "Разхождате се из града и мислите за определен човек. Внезапно го виждате. До какви изводи стигате?"
    },
    {
      "1": "често",
      "2": "да, но имаше конкретен повод",
      "3": "не се доверявам на предчувствието",
      "question": "Отказали ли сте се от нещо, заради лошо предчувствие?"
    }
  ],
  "appname": "Суеверени ли сте?",
  "description": "",
  "quiz": "1",
  "slug": "quizimage",
  "share": "Сподели във Фейсбук",
  "image": "",
  "results": [
    {
      "short": "",
      "full": "Животът ви не зависи нито от магически сили, нито от добри или лоши знаци. Въпреки това от време на време четете хороскопа си и притежавате талисман.\r\n",
      "image": ""
    },
    {
      "short": "",
      "full": "Не вярвате нито в магии, нито в зли духове, нито в предзнаменования. Ако ви се случи нещо загадъчно, отдавате всичко на случайността.\r\n",
      "image": ""
    },
    {
      "short": "",
      "full": "Животът ви не зависи нито от магически сили, нито от добри или лоши знаци. Въпреки това от време на време четете хороскопа си и притежавате талисман.\r\n",
      "image": ""
    }
  ]
}