{
  "_id": "4d3c7a660b7db",
  "promoted":true, "type":"bg", "hrev2": "1-d053b842763c3f732184596d73c42afc",
  "questions": [
    {
      "1": "",
      "2": "",
      "3": "",
      "question": ""
    },
    {
      "1": "хитреци",
      "2": "добри организатори",
      "3": "смели мечтатели",
      "question": "Според вас какви са хората, които участват в експедиции:"
    },
    {
      "1": "парите",
      "2": "познанствата",
      "3": "впечатленията и преживяванията ",
      "question": "На хората, които са живели в различни краища на света, завиждате за:"
    },
    {
      "1": " винаги ви е досадна",
      "2": " донякъде ви е любопитна",
      "3": "е повод да посетите някоя културна или историческа забележителност",
      "question": "Командировка в непознат град:"
    },
    {
      "1": "да си отпочинете вкъщи",
      "2": "да се разтоварите с компания",
      "3": "да тръгнете непременно на някъде",
      "question": "Няколко свободни дни са за вас възможност:"
    },
    {
      "1": " често с поръчка да ви купи нещо",
      "2": "с шеговита завист, че се \"измъква\"",
      "3": "с молба да вземе и вас, когато ви е възможно",
      "question": "Към колега, който пътува често в командировка, се обръщате:"
    }
  ],
  "appname": "Обичате ли да пътешествате?  ",
  "description": "",
  "quiz": "1",
  "slug": "quizimage",
  "share": "Сподели във Фейсбук",
  "image": "",
  "results": [
    {
      "short": "",
      "full": "Пътешествията не са вашата стихия. Предпочитате домашните удобства.\r\n",
      "image": ""
    },
    {
      "short": "",
      "full": "Не страдате особено, ако не сте пътешествали отдавна, но екскурзиите все пак представляват интерес за вас.\r\n",
      "image": ""
    },
    {
      "short": "",
      "full": "Обожавате да пътувате! Мечтаете да обиколите всяко кътче по света, да посетите всяка забележителност!",
      "image": ""
    }
  ]
}