{
  "_id": "4d42dec839447",
  "promoted":true, "type":"bg", "hrev2": "1-d7e75ee5bc3b8680acd911f52a2397e0",
  "questions": [
    {
      "1": "",
      "2": "",
      "3": "",
      "4": "",
      "5": "",
      "6": "",
      "7": "",
      "8": "",
      "9": "",
      "10": "",
      "11": "",
      "12": "",
      "question": ""
    },
    {
      "1": "Ribi",
      "2": "Vodolei",
      "3": "Strelec",
      "4": "Lav",
      "5": "Rak",
      "6": "Skorpion",
      "7": "Kozirog",
      "8": "Deva",
      "9": "Bliznaci",
      "10": "Vezni",
      "11": "Telec",
      "12": "Oven",
      "question": ""
    }
  ],
  "appname": "Koq e va6ata polovinka spored zodiite?",
  "description": "Iskam da vidq koq e moqta polovinka\r\n",
  "quiz": "1",
  "slug": "quizimage",
  "share": "Сподели във Фейсбук",
  "image": "",
  "results": [
    {
      "short": "Oven",
      "full": "",
      "image": ""
    },
    {
      "short": "Telec",
      "full": "",
      "image": ""
    },
    {
      "short": "Bliznaci",
      "full": "",
      "image": ""
    },
    {
      "short": "Rak",
      "full": "",
      "image": ""
    },
    {
      "short": "Lav",
      "full": "",
      "image": ""
    },
    {
      "short": "Deva",
      "full": "",
      "image": ""
    },
    {
      "short": "Vezni",
      "full": "",
      "image": ""
    },
    {
      "short": "Skorpion",
      "full": "",
      "image": ""
    },
    {
      "short": "Strelec",
      "full": "",
      "image": ""
    },
    {
      "short": "Kozirog",
      "full": "",
      "image": ""
    },
    {
      "short": "Vodolei",
      "full": "",
      "image": ""
    },
    {
      "short": "Ribi",
      "full": "",
      "image": ""
    }
  ]
}