{
  "_id": "4d43079ca0833",
  "promoted":true, "type":"bg", "hrev2": "1-d4aa0478c2936ea0340ae7a4644403ff",
  "questions": [
    {
      "1": "",
      "2": "",
      "3": "",
      "question": ""
    },
    {
      "1": "никога",
      "2": "понякога",
      "3": "често",
      "question": "Залагали ли сте някога повече, отколкото можете да си позволите?"
    },
    {
      "1": "никога",
      "2": "понякога",
      "3": "често",
      "question": "Връщате ли се на другия ден в играта, за да си върнете загубените пари?"
    },
    {
      "1": "никога",
      "2": "понякога",
      "3": "често",
      "question": "Чувствали ли сте понякога, че вероятно ще имате проблеми с хазарта?"
    },
    {
      "1": "никога",
      "2": "понякога",
      "3": "често",
      "question": "Усещате ли понякога вина, че играете?"
    }
  ],
  "appname": "Хазартен тип ли сте? ",
  "description": "",
  "quiz": "1",
  "slug": "quizimage",
  "share": "Сподели във Фейсбук",
  "image": "",
  "results": [
    {
      "short": "",
      "full": "Хазартните игри не ви се отразяват. Можете да играете от време на време, за да общувате с приятели и да си починете от всекидневието.\r\n",
      "image": ""
    },
    {
      "short": "",
      "full": "Можете да играете хазарт, докато не усетите, че той започва да ви влияе. Ако откривате в себе си склонност към риска, струва си отделно да я споделите със специалист.\r\n",
      "image": ""
    },
    {
      "short": "",
      "full": "По всяка вероятност вече сте загубили способността да контролирате степента на привързаността си към хазарта. Проблемите ще бъдат доста сериозни.\r\n",
      "image": ""
    }
  ]
}