{
  "_id": "4d43134e38de5",
  "promoted":true, "type":"bg", "hrev2": "1-14af5e603fa9718fe9be96e07aedfd92",
  "questions": [
    {
      "1": "",
      "2": "",
      "3": "",
      "question": ""
    },
    {
      "1": "Като всички останали с ониформите ",
      "2": "Като кралска особа",
      "3": "Елегантно",
      "question": "Как ходите на училище?"
    },
    {
      "1": "Поръчвам си нова",
      "2": "Не ми пука ще я зашия",
      "3": "Ще си купя нещо по готик",
      "question": "Ако някой ви скъса най- хубавата дреха Вие"
    },
    {
      "1": "Правя най - страхотните дрехи",
      "2": "Правя най- купуваните дрехи",
      "3": "Правя най-старомодните дрехи",
      "question": "Представете си , че сте моден дизайнер и Вие"
    },
    {
      "1": "Еми просто ще ги купя",
      "2": "Ще ги ушия честно",
      "3": "Ще се облека красиво и ще излъжа че съм ги ушила",
      "question": "Вие сте на центъра и сте със селски дрехи и нкой ви накара да ушиете най - красивите дрехи и Вие?"
    }
  ],
  "appname": "По модата ли сте?",
  "description": "",
  "quiz": "1",
  "slug": "quizimage",
  "share": "Сподели във Фейсбук",
  "image": "",
  "results": [
    {
      "short": "",
      "full": "Вие знаете как да се обличате . Но понякога не незнаете дали сте се облекли добре.",
      "image": ""
    },
    {
      "short": "",
      "full": "Вие определено сте по модата. Вие сне едни от най- стилните и сексапилните.Успех продължавайте все така.",
      "image": ""
    },
    {
      "short": "",
      "full": "Вие не знаете как да се обличате определено. Стилни сте но не Ви интерисува как сте облечени.",
      "image": ""
    }
  ]
}