{
  "_id": "4d446258ceb36",
  "promoted":true, "type":"bg", "hrev2": "1-d4f0496f50827b3936d93cc6dea9e1e2",
  "questions": [
    {
      "1": "",
      "2": "",
      "3": "",
      "question": ""
    },
    {
      "1": "Незнаеш",
      "2": "Животно",
      "3": "Бизон",
      "question": "Какво е зубара? (жокер: Не учи и е див)"
    },
    {
      "1": "Не, неееее",
      "2": "Не",
      "3": "Не, естествено",
      "question": "Ползва ли гугъл за предният върпрос?"
    },
    {
      "1": "Да :D",
      "2": "Да :D",
      "3": "Да :D",
      "question": "Зубриш ли?"
    },
    {
      "1": "Грешен отговор..",
      "2": "Близо до верният..",
      "3": "Верният....",
      "question": "Какво си помисли преди да прочетеш първият въпрос?"
    },
    {
      "1": "Нищо",
      "2": "Нещо",
      "3": "Всичко",
      "question": "Какво знаеш за велосипедите?"
    }
  ],
  "appname": "Тест колко знаеш.",
  "description": "Колко знаеш.",
  "quiz": "1",
  "slug": "quizimage",
  "share": "Сподели във Фейсбук",
  "image": "",
  "results": [
    {
      "short": "Да бе, може би другия път.",
      "full": "Я пак помисли...",
      "image": ""
    },
    {
      "short": "Сигурна съм, че можеш по-добре.",
      "full": "Ех, мечти мечти.",
      "image": ""
    },
    {
      "short": "БРАВО!!!",
      "full": "Браво!!!",
      "image": ""
    }
  ]
}