{
  "_id": "4d445c0b828d8",
  "promoted":true, "type":"bg", "hrev2": "1-aed129638000030bf968d7e864c7cd99",
  "questions": [
    {
      "1": "",
      "2": "",
      "3": "",
      "4": "",
      "5": "",
      "6": "",
      "question": ""
    },
    {
      "1": "Преди имах !",
      "2": "Да , имам :)) !",
      "3": "Много искам малък приятел, с който да се забавлявам !!",
      "4": "НЕ съм сигорен дали искам",
      "5": "Обичам жевотните но нямам ! :((",
      "6": "НЕ!",
      "question": "Имаш ли домашен любимец ??"
    },
    {
      "1": "папагал :))",
      "2": "коте",
      "3": "куче",
      "4": "костенурка",
      "5": "кон",
      "6": "хамстер",
      "question": "Кое от изброените животни ти харесво най-много ??"
    },
    {
      "1": "ЛЕ леее Як\\а кака\\батко !!",
      "2": "Ще има сега да ме глезиии !!",
      "3": "ООооо0 ..дааа нов приятел за играа !!",
      "4": "ОхоООо сега тряябваааааа ддааааа стааааанааааа..........................",
      "5": "Ау сега ще я\\го гледам с мили очички !! O_o",
      "6": "Дайййй даааа яяяяяяяяям...",
      "question": "Според теб какво си мислят животните ,когато те зяпат ?? :))"
    },
    {
      "1": "Да им обръщаш достатъчно внимание :))",
      "2": "Да ги глезиш :))",
      "3": "Да играеш с тях :))",
      "4": "Да ги зяпаш !!",
      "5": "ДА се разхождате заедно :))",
      "6": "Да им даваш да ядат !!",
      "question": "Какво мислиш трябва да правеш за животнете ??"
    },
    {
      "1": "НЕ ! Мързи ме да ги гледам !",
      "2": "Винаги съм ге обичал\\а :))",
      "3": "Да, Но не искам дом. любимец !!",
      "4": "НЕ!! Ужасно са гнусни !!",
      "5": " МНОГО ГИ ОБИЧАМ !!",
      "6": "Само някои !!",
      "question": "Обичаш ли животните??"
    }
  ],
  "appname": "Кой домашен любимец е за теб ? :)",
  "description": "",
  "quiz": "1",
  "slug": "quizimage",
  "share": "Сподели във Фейсбук",
  "image": "",
  "results": [
    {
      "short": "За теб е подходящ папагал :))",
      "full": "Малките капризни животинки са само за теб !!",
      "image": ""
    },
    {
      "short": " За теб е подходящd котето :))",
      "full": "Гальовните мъркащи любимци ще бъдат доволни в твоите ръце !!",
      "image": ""
    },
    {
      "short": "За теб е подходящо кучето :))",
      "full": "Игривите приятелчета ще ти отиват най-много !!",
      "image": ""
    },
    {
      "short": "За теб е подходяща костенурката :))",
      "full": "Флегматичните твари ще бъдат тбоите най-добри слушатели!!",
      "image": ""
    },
    {
      "short": "За теб е подходящ коня :))",
      "full": "Прекрасното животно те описва най-добре !!",
      "image": ""
    },
    {
      "short": "За теб е подходящ хамстерът :))",
      "full": "Гризачите са твоята страст !!",
      "image": ""
    }
  ]
}