{
  "_id": "4d485e5e43823",
  "promoted":true, "type":"bg", "hrev2": "1-4ccf7b34a7c18c6d5f0be9861dd63fcc",
  "questions": [
    {
      "1": "",
      "2": "",
      "3": "",
      "question": ""
    },
    {
      "1": "черен",
      "2": "лилав",
      "3": "всякъкъв,без черен",
      "question": "Кой ти е любимия цвят?"
    },
    {
      "1": "Не",
      "2": "Може би ",
      "3": "Да,обожавам!",
      "question": "Обичаш ли сладолед"
    },
    {
      "1": "Най-вече-моята любима пижама!",
      "2": "Дънки и ако е лята потник!",
      "3": "Бяла блузка със син анцунг!",
      "question": "Какво носиш като си сама вкъщи"
    },
    {
      "1": "Не,мразя кецове?",
      "2": "Да,но рядко!",
      "3": "Винаги",
      "question": "Обуваш ли често кецове?"
    },
    {
      "1": "Не,аз съм ужасна в кафяво!",
      "2": "Понякога се харесвам",
      "3": "Да много ми отива!",
      "question": "Кафяво-Мислиш ли дали ти отива!?"
    }
  ],
  "appname": "Каква блуза си за деня?",
  "description": "Да проверим,че ми е любопитно!",
  "quiz": "1",
  "slug": "quizimage",
  "share": "Сподели във Фейсбук",
  "image": "",
  "results": [
    {
      "short": "Черно поло",
      "full": "Ти си била доста зле през деня!Тъжна,чувствала си се гадно!Полото ти е носело поне мъничко късмет!Внимавай!<3",
      "image": ""
    },
    {
      "short": "Свежо",
      "full": "Ти си била доста свежа през деня!Бъди все такава!Блузата е червена с лилаво тя ти носи огрмно здраве и късмет!",
      "image": ""
    },
    {
      "short": "Бяла",
      "full": "Бялата блуза е точно за теб!Ти харесваш този цвят!Тя ти носи щастие!<3",
      "image": ""
    }
  ]
}