{
  "_id": "4d48637ead2d0",
  "promoted":true, "type":"bg", "hrev2": "1-998c148802ce9395bbbf762c3cd6c77d",
  "questions": [
    {
      "1": "",
      "2": "",
      "question": ""
    },
    {
      "1": "Приятна необходимост",
      "2": "Послание, което трябва да се предаде",
      "question": "Подаръкът според вас представлява:"
    },
    {
      "1": "Сама",
      "2": " Винаги с помощта на продавач/ка",
      "question": "Подарък избирате:"
    },
    {
      "1": "Формата",
      "2": "Съдържанието",
      "question": "За един подарък кое е по- важно?"
    },
    {
      "1": "Бързо, разкъсвайки опаковката",
      "2": "Спокойно, очаквайки изненадата",
      "question": "Как отваряте подарък?"
    },
    {
      "1": "Дреха",
      "2": "Играчка",
      "question": "Като малки сте предпочитали да получавате:"
    },
    {
      "1": "Получавате",
      "2": "Подарявате",
      "question": "Относно подаръците предпочитате да:"
    },
    {
      "1": "Стойността",
      "2": "Мисълта",
      "question": "Подаръкът ви поразява повече заради:"
    },
    {
      "1": "С ясни идеи",
      "2": " С широки възгледи",
      "question": "Смятате се за човек с:"
    }
  ],
  "appname": "Какъв подарък предпочитате?  ",
  "description": "Не винаги е лесно да се разберат вкусовете и предпочитанията на околните. А вие какъв тип подарък предпочитате ще разберете попълвайки теста.",
  "quiz": "1",
  "slug": "quizimage",
  "share": "Сподели във Фейсбук",
  "image": "",
  "results": [
    {
      "short": "",
      "full": "За вас е ценно всичко, което се облича: от свежа тениска до симпатичен анцунг. Ако пък тези неща ги подарява любимия човек, още по- добре. Да носите скъпа дреха, подарена ви от скъп човек, за вас това е като да го имате близо до себе си, като да чувствате неговата прегръдка и милувка.",
      "image": ""
    },
    {
      "short": "",
      "full": "За вас парфюмът е особено подходящ. Винаги жадна за потвърждения и уверения, понякога страхуваща се, че не се харесвате достатъчно, вие харесвате и оценявате букета от рози, приятния парфюм, комплект шампоани. Мъжът, който е осъзнал тези ваши предпочитания и ви подарява такива неща има големи шансове да завладее и сърцето ви.",
      "image": ""
    }
  ]
}