{
  "_id": "4d4da162a1d97",
  "promoted":true, "type":"bg", "hrev2": "1-c5fdc2622fb015ad8f6ca9550b846c1c",
  "questions": [
    {
      "1": "",
      "2": "",
      "3": "",
      "question": ""
    },
    {
      "1": "зад ушите",
      "2": "от деколтето",
      "3": "от китките на ръката",
      "question": "Когато поставяте парфюм от къде започвате?"
    },
    {
      "1": "гребен за коса",
      "2": "червило",
      "3": "пакет тоалетни кърпички",
      "question": "Във вашата чанта никога не липсва…"
    },
    {
      "1": "черен прилепнал костюм",
      "2": "панталон и копринена риза",
      "3": "красив костюм със сако",
      "question": "Ако някой мъж, който Ви харесва, ви покани на вечеря, как се обличате?"
    },
    {
      "1": "отлежало вино ",
      "2": "шампанско",
      "3": "бутилка минерална вода",
      "question": "Каква напитка бихте поръчали по време на тази вечеря?"
    },
    {
      "1": "огромен и красив букет цветя",
      "2": "любимия ми парфюм",
      "3": "луксозно бельо",
      "question": "Какъв подарък предпочитате от Вашата половинка за рождения Ви ден?"
    },
    {
      "1": "класическа вратовръзка",
      "2": "вечеря в луксозен ресторант",
      "3": "лосион за след бръснене",
      "question": "Какво Вие бихте подарили на него?"
    },
    {
      "1": "без да сте гримирана и нагласена",
      "2": "без пари",
      "3": "без да се парфюмирате",
      "question": "Независимо че не отивате на тържество или разходка, не можете да излезете на улицата…."
    }
  ],
  "appname": "Неудържима жена ли сте? ",
  "description": "Една неудържима, привлекателна жена е способна на чудеса. Доколко вие можете да бъдете винаги обаятелна и възхитителна ще разберете след като отговорите на въпросите:\r\n",
  "quiz": "1",
  "slug": "quizimage",
  "share": "Сподели във Фейсбук",
  "image": "",
  "results": [
    {
      "short": "",
      "full": "Вие се страхувате да бъдете неудържима жена. Не ви допада изобщо да съблазнявате, нито пък желаете хората около вас да ви се възхищават. Всичко това го смятате като загуба на време.\r\n",
      "image": ""
    },
    {
      "short": "",
      "full": "С малко повече усилия бихте успели да бъдете неудържима жена. Обичате да съблазнявате, но в същото време се страхувате да не изпаднете в смешна ситуация. Но, запомнете, че в тази игра всичко е валидно и всяка жена в определен момент е наистина неудържима.\r\n",
      "image": ""
    },
    {
      "short": "",
      "full": "Вие сте абсолютно неудържима жена. Никой не може да подмине, ей така, вашите прелести.\r\n",
      "image": ""
    }
  ]
}