{
  "_id": "4d91f971768ed",
  "promoted":true, "type":"bg", "hrev2": "1-82eca75a425ea15a8be39d557ba79897",
  "questions": [
    {
      "1": "",
      "2": "",
      "3": "",
      "4": "",
      "5": "",
      "question": ""
    },
    {
      "1": "",
      "2": "",
      "3": "",
      "4": "",
      "5": "",
      "question": "1.\tЗнам кога да споделям личните си проблеми с другите."
    },
    {
      "1": "",
      "2": "",
      "3": "",
      "4": "",
      "5": "",
      "question": "2.\tКогато се сблъсквам с трудности, аз си спомням моменти, когато съм срещал подобни и съм ги преодолявал. "
    },
    {
      "1": "",
      "2": "",
      "3": "",
      "4": "",
      "5": "",
      "question": "3.\tОчаквам, че ще се справя добре с повечето от нещата, с които се захвана."
    },
    {
      "1": "",
      "2": "",
      "3": "",
      "4": "",
      "5": "",
      "question": "4.\tДругите хора лесно ми се доверяват."
    },
    {
      "1": "",
      "2": "",
      "3": "",
      "4": "",
      "5": "",
      "question": "5.\tТрудно ми е да разбирам невербалните сигнали на другите хора."
    },
    {
      "1": "",
      "2": "",
      "3": "",
      "4": "",
      "5": "",
      "question": "6.\tНякои от важните събития в моя живот ме накараха да преженя кое е значимо и кое не."
    },
    {
      "1": "",
      "2": "",
      "3": "",
      "4": "",
      "5": "",
      "question": "7.\tКогато настроението ми се променя, виждам нови възможности."
    },
    {
      "1": "",
      "2": "",
      "3": "",
      "4": "",
      "5": "",
      "question": "8.\tЕмоциите са едно от нещата, които правят живота ми пълноценен."
    },
    {
      "1": "",
      "2": "",
      "3": "",
      "4": "",
      "5": "",
      "question": "9.\tОсъзнавам своите емоции, докато ги преживявам."
    },
    {
      "1": "",
      "2": "",
      "3": "",
      "4": "",
      "5": "",
      "question": "10.\tОптимист съм, очаквам да се случват хубави неща."
    },
    {
      "1": "",
      "2": "",
      "3": "",
      "4": "",
      "5": "",
      "question": "11.\tОбичам да споделям емоциите си с другите."
    },
    {
      "1": "",
      "2": "",
      "3": "",
      "4": "",
      "5": "",
      "question": "12.\tКогато преживявам позитивна емоция, знам как да я задържа за по-дълго."
    },
    {
      "1": "",
      "2": "",
      "3": "",
      "4": "",
      "5": "",
      "question": "13.\tОрганизирам събития, които се харесват на другите."
    },
    {
      "1": "",
      "2": "",
      "3": "",
      "4": "",
      "5": "",
      "question": "14.\tТърся дейности, които ме правят щастлив."
    },
    {
      "1": "",
      "2": "",
      "3": "",
      "4": "",
      "5": "",
      "question": "15.\tОсъзнавам невербалните сигнали, които изпращам на другите."
    },
    {
      "1": "",
      "2": "",
      "3": "",
      "4": "",
      "5": "",
      "question": "16.\tПредставям себе си по начин, че да се харесам на другите."
    },
    {
      "1": "",
      "2": "",
      "3": "",
      "4": "",
      "5": "",
      "question": "17.\tКогато съм в добро настроение по-лесно разрешавам проблемите си."
    },
    {
      "1": "",
      "2": "",
      "3": "",
      "4": "",
      "5": "",
      "question": "18.\tРазпознавам емоциите, които преживяват другите, гледайки изражението на лицата им."
    },
    {
      "1": "",
      "2": "",
      "3": "",
      "4": "",
      "5": "",
      "question": "19.\tЗнам защо моето настроение се променя."
    },
    {
      "1": "",
      "2": "",
      "3": "",
      "4": "",
      "5": "",
      "question": "20.\tКогато съм в добро настроение съм способен да творя нови идеи."
    },
    {
      "1": "",
      "2": "",
      "3": "",
      "4": "",
      "5": "",
      "question": "21.\tАз контролирам емоциите си."
    },
    {
      "1": "",
      "2": "",
      "3": "",
      "4": "",
      "5": "",
      "question": "22.\tЛесно разпознавам емоциите си, докато ги преживявам."
    },
    {
      "1": "",
      "2": "",
      "3": "",
      "4": "",
      "5": "",
      "question": "23.\tМотивирам себе си, като си представям успешния резултат на задачите, които съм си поставил."
    },
    {
      "1": "",
      "2": "",
      "3": "",
      "4": "",
      "5": "",
      "question": "24.\tПравя комплименти на другите, когато направят нещо добре."
    },
    {
      "1": "",
      "2": "",
      "3": "",
      "4": "",
      "5": "",
      "question": "25.\tОсъзнавам невербалните сигнали, които другите ми изпращат."
    },
    {
      "1": "",
      "2": "",
      "3": "",
      "4": "",
      "5": "",
      "question": "26.\tКогато някой ми разкаже за важно събитие от живота си, се чувствам сякаш  аз самият съм го преживял."
    },
    {
      "1": "",
      "2": "",
      "3": "",
      "4": "",
      "5": "",
      "question": "27.\tКогато почувствам промяна в емоциите си, съм способен да създам нови идеи."
    },
    {
      "1": "",
      "2": "",
      "3": "",
      "4": "",
      "5": "",
      "question": "28.\tКогато се изправям пред някаква трудност се отказвам, защото смятам, че ще се проваля."
    },
    {
      "1": "",
      "2": "",
      "3": "",
      "4": "",
      "5": "",
      "question": "29.\tКогато наблюдавам другите, мога да разбера как се чувстват."
    },
    {
      "1": "",
      "2": "",
      "3": "",
      "4": "",
      "5": "",
      "question": "30.\tПомагам на другите да се почувстват по-добре, когато са се отчаяли."
    },
    {
      "1": "",
      "2": "",
      "3": "",
      "4": "",
      "5": "",
      "question": "31.\tИзползвам доброто си настроение, за да продължавам да се боря с трудностите."
    },
    {
      "1": "",
      "2": "",
      "3": "",
      "4": "",
      "5": "",
      "question": "32.\tМога да кажа как се чувстват хората по интонацията на гласа им."
    },
    {
      "1": "",
      "2": "",
      "3": "",
      "4": "",
      "5": "",
      "question": "33.\tТрудно ми е да разбера, защо хората се чувстват по определен начин."
    }
  ],
  "appname": "Тест за родители ",
  "description": "PHP Tests",
  "quiz": "1",
  "slug": "quizimage",
  "share": "Сподели във Фейсбук",
  "image": "",
  "results": [
    {
      "short": "Напълно несъгласен",
      "full": "",
      "image": ""
    },
    {
      "short": "Донякъде несъгласен",
      "full": "",
      "image": ""
    },
    {
      "short": "Не мога да преценя",
      "full": "",
      "image": ""
    },
    {
      "short": "Донякъде съгласен",
      "full": "",
      "image": ""
    },
    {
      "short": "Напълна съгласен",
      "full": "",
      "image": ""
    }
  ]
}