{
  "_id": "4d93597dc89c6",
  "promoted":true, "type":"bg", "hrev2": "1-bf00b00017cb697632f001d42c68e3c2",
  "questions": [
    {
      "1": "",
      "2": "",
      "3": "",
      "question": ""
    },
    {
      "1": "Усмихвате се и го слушате...",
      "2": "Смущавате се....",
      "3": "Не му обръщате внимание от срам...",
      "question": "Харесвате момче...мислите че и той ви харесва...Какво правите ако ви заговори?"
    },
    {
      "1": "Съгласявате се",
      "2": "чудите се какво да правите",
      "3": "отказвате",
      "question": "Ако иска да си поговори с вас вие:"
    },
    {
      "1": "Питате го защо...и каквото стане тогава",
      "2": "вземате нещото и му благодарите",
      "3": "отхвърляте ",
      "question": "Момчето ви почерпи...вие:"
    },
    {
      "1": "Питате защо ви го показва или се усмихвате",
      "2": "ха-съвпадение",
      "3": "ей какво пък",
      "question": "Във хороскопа пише че зодиите ви си допадат и той ви го показва а вие:"
    },
    {
      "1": "Д-о-б-р-е.....",
      "2": "Защо ли?",
      "3": "Ами не....",
      "question": "Иска да говори с вас за нещо важно/да си признае че ви харесва но вие не знаете за това/и какво правите:"
    }
  ],
  "appname": "По характер ще спечелите ли мечтаното момче?!",
  "description": "Дали мечтаното момче Ви харесва по характер!?",
  "quiz": "1",
  "slug": "quizimage",
  "share": "Сподели във Фейсбук",
  "image": "",
  "results": [
    {
      "short": "Само си избери момче....",
      "full": "Имаш страхотен характер,който ще омае мечтаното от теб момче!",
      "image": ""
    },
    {
      "short": "Помисли си още.....",
      "full": "Има още какво да се желае!",
      "image": ""
    },
    {
      "short": "",
      "full": "Само това ще ти кажа:\r\nПоложението е :(",
      "image": ""
    }
  ]
}