{
  "_id": "4ddf7e5b75722",
  "promoted":true, "type":"bg", "hrev2": "1-e80384ec2d7fc4584d601c4dd40a2c25",
  "questions": [
    {
      "1": "",
      "2": "",
      "3": "",
      "question": ""
    },
    {
      "1": "Намесвате се в спора.",
      "2": "Мъчите се да ги разтървете.",
      "3": "Наблюдавате ги и им се хихикате.",
      "question": "Когато приятелите ви спорят по между си вие..."
    },
    {
      "1": "Трябва да е популярен,",
      "2": "",
      "3": "",
      "question": "Според вас какво трябва да притежава един човек за да ви е приятел?"
    }
  ],
  "appname": "На коя известна личност приличате най-много?",
  "description": "Ще разберете на коя личност приличате!!!",
  "quiz": "1",
  "slug": "quizimage",
  "share": "Сподели във Фейсбук",
  "image": "",
  "results": [
    {
      "short": "Селена Гомез",
      "full": "Вие приличате на сладураната по нейната красота, сдържаност и интелигентният й характер.",
      "image": ""
    },
    {
      "short": "Джъстин Бийбър ",
      "full": "Вие сте ГОТИН човек! ",
      "image": ""
    },
    {
      "short": "Лейди Гага",
      "full": "Вие сте ужасен човек!! Много сте грозен и самоуверен! Вие сте една грозна издънка в живота!",
      "image": ""
    }
  ]
}