{
  "_id": "4e28195256674",
  "promoted":true, "type":"bg", "hrev2": "1-2031d1dce3baafb15137d98786c11755",
  "questions": [
    {
      "1": "",
      "2": "",
      "3": "",
      "question": ""
    },
    {
      "1": "да",
      "2": "понякога",
      "3": "не",
      "question": "Обичат ли да се целуват ?"
    },
    {
      "1": "не",
      "2": "има и двойки",
      "3": "да",
      "question": "Мария Коларова двойкаджийка ли е ?"
    },
    {
      "1": "Виктор",
      "2": "Мартин",
      "3": "Веселин",
      "question": "Габриела Колева харесваше през 2009година:"
    },
    {
      "1": "Веселин",
      "2": "Мартин",
      "3": "Габриел",
      "question": "Мария Коларова харесваше в 6-ти клас:"
    },
    {
      "1": "да",
      "2": "понякога ",
      "3": "не",
      "question": "Габриела Колева добра ли е ?"
    },
    {
      "1": "",
      "2": "",
      "3": "",
      "question": ""
    },
    {
      "1": "",
      "2": "",
      "3": "",
      "question": ""
    }
  ],
  "appname": "Как гледате на Габриела Николаева Колева (Gabchy Be) и на Мария Коларова",
  "description": "",
  "quiz": "1",
  "slug": "quizimage",
  "share": "Сподели във Фейсбук",
  "image": "",
  "results": [
    {
      "short": "отлично",
      "full": "",
      "image": ""
    },
    {
      "short": "добре",
      "full": "",
      "image": ""
    },
    {
      "short": "зле",
      "full": "",
      "image": ""
    }
  ]
}