{
  "_id": "4c73b45fcaaa3",
  "promoted":true, "type":"bg", "hrev2": "1-4efbcf5f9fa6812fb5870f93ec41c5fe",
     
  "questions": [

    {
      "1": "дискотека",
      "2": "кафе, бар",
      "3": "кръчма",
      "4": "караоке",
      "question": "В какъв тип заведения обичате да сядате?"
    },
    {
      "1": "не пия бира",
      "2": "с пяна",
      "3": "от бутилката",
      "4": "в охладена чаша",
      "question": "Как обичате да пиете бирата?"
    },
    {
      "1": "суши",
      "2": "бирени фъстъци",
      "3": "пържени картофи",
      "4": "риба",
      "question": "Какво мезе обичате към бирата?"
    },
    {
      "1": "1-2 големи",
      "2": "3-4 големи",
      "3": "не пия всеки ден",
      "4": "една малка бира",
      "question": "Какво количество бира консумирате дневно?"
    },
    {
      "1": "чалга",
      "2": "денс, хаос",
      "3": "рок, ретро",
      "4": "джаз",
      "question": "Каква музика слушате, докато пиете бира?"
    }
  ],
  "appname": "Коя бира си?",
  "description": "идея, породена от бирено опиянение и реализирана от същото такова :))",
  "quiz": "14",
  "image": "SJmoXWkXx",
  "slug": "quizimage",
  "share": "Сподели във Фейсбук",
  "results": [
    {
      "short": "Ариана",
      "full": "",
      "image": "ByBW4ZkQx"
    },
    {
      "short": "Туборг",
      "full": "",
      "image": "rycmVW1Qe"
    },
    {
      "short": " Хайнекен",
      "full": "",
      "image": "BybB4-17x"
    },
    {
      "short": "Каменица",
      "full": "",
      "image": "SJtLE-kXe"
    }
  ]
}