{
  "_id": "4c9c031e9d005",
  "promoted":true, "type":"bg", "hrev2": "1-fd53e84821eed62624d21dfac18e9c32",     
  "questions": [
    {
      "1": "",
      "2": "",
      "question": ""
    },
    {
      "1": "Ще Я/Го Прегърна И Ще И Кажа Спокойно Всичко Ще Се Оправи!",
      "2": "Ще Кажа Кво Ти Пука Бе Ще Си Намериш Друга/Друг",
      "question": "Момиче/Момче Идва Разплакано При Вас Защото Се Е Сракала/Скарал С Гаджето Си Какво Ще Направите?"
    },
    {
      "1": "Ще И/Му Дам Даже Две!",
      "2": "Ще Кажа И Да Имам Няма Да Ти Дам Ходи Си Купи",
      "question": "На Купон Сте И Момиче/Момче Идва При Вас Да Ви Пита Дали Имате Една Цигара?"
    },
    {
      "1": "Ще И/Му Скоча И Аз!",
      "2": "Ще Избягам Настрани Да Не Хапна Боя И Аз",
      "question": "Някои Идва Да Бие Ваш Приятел/Ваша Приятелка Какво Ще Направите?"
    },
    {
      "1": "Ще Я Закарам Разбирасе",
      "2": "Ще И Кажа Да Си Хване Такси",
      "question": "Майка На Ваш Приятел/Приятелка Идва До Вас Да Ви Пита Дали Може Да Я Закарате На Работа Защото Е Изпуснала Буса?"
    }
  ],
  "appname": "Провери Колко Си Интелигентен/На",
  "description": "",
  "quiz": "1",
  "image": "",
  "slug": "quizimage",
  "share": "Сподели във Фейсбук",
  "results": [
    {
      "short": "Вие Сте Много Интелигентен/на",
      "full": "Вие Обичате Да Разговаряте С Хора И Да Показвате Вашата Интелигентност И Това Ви Прави Много Интелигентен/На!",
      "image": ""
    },
    {
      "short": "Вие Сте Не Интелигентен/На",
      "full": "Вие Обичате Да Става Все Вашето Говорите Неща Който Може Да Засегнат Другите И Несе Интересувате От Това И Това Е Много Лошо За Вас!",
      "image": ""
    }
  ]
}