{
  "_id": "4cc881e93efde",
  "promoted":true, "type":"bg", "hrev2": "1-2c0a360c633493eb36dc3af8fdef33e1",  
  "questions": [
 
    {
      "1": "Често шарят ",
      "2": "Страстни",
      "3": "Срамежливи",
      "question": "Очите ви:"
    },
    {
      "1": "Нещо което никога няма да ми се случи. ",
      "2": "Романтично изживяване",
      "3": "Другото име на флирта за една нощ",
      "question": "Любовта от пръв поглед е:"
    },
    {
      "1": "Излизате на кафе с приятелка",
      "2": "Обаждате се на някое бивше гадже ",
      "3": "Тръгвате след него",
      "question": "Гаджето ви заминава с влака за някъде, Вие:"
    },
    {
      "1": "Танцувате разгорещени танци ",
      "2": "Наблюдавате ",
      "3": "Скучаете",
      "question": "В дискотеката Вие:"
    },
    {
      "1": "Правите се на недостъпни",
      "2": "Избягвате го - не говорите с непознати ",
      "3": "Включвате се във флирта",
      "question": "Ако непознат човек от другия пол ви заговори:"
    },
    {
      "1": "Не",
      "2": "Да",
      "3": "Зависи с кого",
      "question": "Бихте ли правили секс за една вечер?"
    }
  ],
  "appname": "Вие и флирта",
  "description": "",
  "quiz": "14",
  "slug": "quizimage",
  "share": "Сподели във Фейсбук",
  "image": "BkM2fAG7e",
  "results": [
    {
      "short": "Справяте се добре",
      "full": "Не сте точно Богиня на флирта, но се справяте добре.",
      "image": "H1eOmRMXx"
    },
    {
      "short": "Има надежда",
      "full": "Лек коцуз във флирта сте, но няма страшно, надежда има и във вас.",
      "image": "H1eOmRMXx"
    },
    {
      "short": "Съвършена флиртаджийка",
      "full": "Вие сте Богиня на флирта, усвоили сте всичките му тънкости, браво на вас!",
      "image": "SJRcQRM7e"
    }
  ]
}