{
    "_id": "4c6a7dcd6be95",
    "promoted":true, "type":"bg", "hrev2": "1-659cca1aaae20db42eab5d7894bc8326",  
    "questions": [

        {
            "1": "Чувството за хумор",
            "2": "Мисленето",
            "3": "Характера",
            "4": "Стегнатото дупе ",
            "question": "Какво харесвате в мъжа?"
        }, {
            "1": "свенливо",
            "2": "сядате на края на стола",
            "3": "кръстосвате крак, така че полата ви да се плъзне по- високо",
            "4": "сядате си удобно и толкова",
            "question": "Когато сядате срешу един мъж вие : "
        }, {
            "1": "търсите закрила ",
            "2": "преследвате ги и ги провокирате ",
            "3": "натоварвате се с решението на проблеми, които би трябвало да решават те ",
            "4": "разкеивате сексапила си ",
            "question": "Мъжете се интересуват от вас само, когато : "
        }, {
            "1": "независимо къде...целувките му за вас са нещо страхотно ",
            "2": "през нощта на улицата, защото минават странни личности ",
            "3": "през деня, когато има много хора ",
            "4": "на романтично място...например на брега..под луната... ",
            "question": "Първата му целувка пред други би ви харесала повече:"
        }, {
            "1": "да ви погали ",
            "2": "да интимничи с вас на публично място ",
            "3": "да обличате само секси бельо, купено от него ",
            "4": "да се усамотите на някое хубаво местенце ",
            "question": "Ще приемете ли, ако ненадейно ви предложи: "
        }
    ],
    "appname": "Как ще се казва мъжа, за който ще се омъжите?",
    "description": "само за момичета :)",
    "quiz": "11",
    "image": "SybH5a6fl",
    "slug": "quizimage",
    "share": "Сподели във Фейсбук",
    "results": [{
        "short": "Георги",
        "full": "",
        "image": "SybH5a6fl"
    }, {
        "short": "Николай",
        "full": "",
        "image": "SybH5a6fl"
    }, {
        "short": "Явор",
        "full": "",
        "image": "SybH5a6fl"
    }, {
        "short": "Борислав",
        "full": "",
        "image": "SybH5a6fl"
    }]
}