{
    "_id": "4c6bad9c9ee3f",
    "quiz": "1-958a7c0bef91990deda0ff9497bac8b1",  
    "share": "Сподели във Facebook",
    "questions": [{
        "1": "",
        "2": "",
        "3": "",
        "4": "",
        "question": ""
    }, {
        "1": "Чаровен поглед!",
        "2": "Кръшна разходка покрай него/нея, за да му/й покажеш какво горещо парче си",
        "3": "Заговаряш го/я",
        "4": "Черпиш я/го с питие",
        "question": "Мъжът/Жената на живота ти е в любимия ти клуб. Как ще я спечелиш? "
    }, {
        "1": "Обичам разходките сред гората.",
        "2": "Обичам да се забвлявам!",
        "3": "Обожавам да си комуникирам с хора от моята \"порода\"",
        "4": "Обичам да наблюдавам!",
        "question": "Кое от долните твърдения важи най-вече за теб?"
    }, {
        "1": "плача, когато ми е кофти",
        "2": "излизам с приятели",
        "3": "отивам на пътешествие",
        "4": "спортувам, за да изразходя негативната енергия",
        "question": "\"Как се справяш с предизвикателствата и трудностите на живота? \""
    }, {
        "1": "купонясваш",
        "2": "се срещаш с много нови хора",
        "3": "можеш да останеш на спокойствие",
        "4": "имаш поводи да се усмихваш",
        "question": "Харесваш дните , в които... "
    }, {
        "1": "те обожават",
        "2": "търсят съветите ти",
        "3": "искат да са в твоята компания",
        "4": "ти завиждат",
        "question": "\"Колегите на работното ти място... \""
    }, {
        "1": "се скарам с близък",
        "2": "няма с кого да излезна навън",
        "3": "ми дават поводи да плача",
        "4": "скучая у дома",
        "question": "\"Мразя когато... \""
    }, {
        "1": "да, една усмивка може да промени много неща",
        "2": "определено!",
        "3": "важно е какво казваш",
        "4": "важното е да се случват неща около теб, кой ти гледа езика на тялото",
        "question": "\"Вярваш ли в езика на тялото? \""
    }],
    "appname": "Кое е твоето скрито оръжие?",
    "description": "Разберете с какво впечатлявате хората, с какво приковавате вниманието им и с какво те ще ви запомнят за цял живот...",
    "owner": "1563161591",
    "uid": "4c6bad9c9ee3f",
    "results": [{
        "short": "Говорът!",
        "full": "Омагьосваш с думи! Винаги знаеш какво да кажеш, кога и по какъв начин, за да докоснеш душевните струни на човека отсреща. Враговете ти знаят, че трябва да ти затварят устата, ако не искат да останат те с пръст в устата! От теб ще излезе невероятен оратор!",
        "image": "r1OrZ2hfe"
    }, {
        "short": "Походката!",
        "full": "Колкото и странно да звучи откъдето и да минеш не оставаш незабелязан/а. Походката ти издава увереността и амбициозната ти персона! Разходи се наоколо покрай обект на желанията ти и той/тя ще бъде твой/твоя.",
        "image": "HJwdZ33Mg"
    }, {
        "short": "Жестовете!",
        "full": "Ти си фурия! Когато говориш винаги си толкова емоционален/а. Спонтанните ти реакции заразяват другите и ги карат да се чувстват спокойно и уютно в компанията ти!",
        "image": "HkZTbh2fx"
    }, {
        "short": "Погледът!",
        "full": "МММ магическо! Спокойно може да обявиш на всички, че само с един поглед може да накараш всеки да се подчини на желанията ти! Ти си индивидуалист и погледа ти не остава по-назад! Можеш да кажеш всичко с очите си, но и добре се прикриваш!",
        "image": "Byslfn2Me"
    }],
    "image": "Bksnx3nGx",
    "slug": "quizimage"
}