{
  "_id": "4cd9b93a52b96",
  "promoted":true, "type":"bg", "hrev2": "1-10eee4c915f98e165f5199e25dabb24c",  
  "questions": [
 
    {
      "1": "3-4 имам",
      "2": "да",
      "3": "не",
      "4": "мразя ги",
      "question": "Имаш ли котка ?"
    },
    {
      "1": "Отивам до най-близкия магазин и му взимам да яде нещичко и после го милвам и гушкам и моля родителите си да го задаржа :))))",
      "2": "викам пис пис пис и го милвам :)",
      "3": "ами нищо особенно",
      "4": "ритам го и го плюя ",
      "question": "като видиш коте на улицата какво правиш?"
    },
    {
      "1": "Ще се зарадвам ужасно много!Нищо че вече имам в нас :) ще станат 2 :)",
      "2": "Ще се зарадвам :)",
      "3": "Подарак ,като подарак..",
      "4": "Ще го хвърля",
      "question": "Ако ти подарят коте за рождения ден какво ще направиш?"
    },
    {
      "1": "Ще се развикам на шофъора че не внимава и че ще го съдя ...ще взема котето и ще го заведа веднага на лекар !!",
      "2": "ще се опитам да му помогна ако мога",
      "3": "нищо не мога да направя",
      "4": "ще се радвам и без тфа навсякаде гъмжи от котки",
      "question": "какво ще направиш ако пред теб кола бласне котенце :( ?"
    },
    {
      "1": "ще си го взема в нас :):):))))",
      "2": "ще му се порадвам малко и ще го оставя там кадето съм го намерил/а",
      "3": "ще го помилвам ",
      "4": "ще го наплюя ",
      "question": "ако намериш малко бебе коте ..."
    },
    {
      "1": "Всичкооооооо ! Обичам ги и немога без тях!!!",
      "2": "сладки малки пухкави :)",
      "3": "просто животни ",
      "4": "гадни изродчета малки",
      "question": "котките за теб са ?"
    }
  ],
  "appname": "Обичаш ли котките ?",
  "description": "с този тест ще разбереш обичаш ли и колко котките :)",
  "quiz": "14",
  "slug": "quizimage",
  "share": "Сподели във Фейсбук",
  "image": "BJvOSRzQx",
  "results": [
    {
      "short": "Много !",
      "full": "",
      "image": "BJvOSRzQx"
    },
    {
      "short": "ДА !",
      "full": "",
      "image": "BJvOSRzQx"
    },
    {
      "short": "Малко ",
      "full": "",
      "image": "BJvOSRzQx"
    },
    {
      "short": "Не",
      "full": "",
      "image": "BJvOSRzQx"
    }
  ]
}