{
    "_id": "4c6c09d7b596b",
    "quiz": "1-cfacacde03d232e4c184c687ccab2d94",
    "share": "Сподели във Facebook",
    "questions": [{
        "1": "Умирам да си споделяме и да си говорим сладко.",
        "2": "Добре е да се говори, ама ми става досадно понякога",
        "3": "Мълчанието е злато!",
        "question": "Какво е вашето отношение към разговорите с партньора?"
    }, {
        "1": "секси, страстен/на, необуздан/на",
        "2": "умен/на, мил/а, с чувство за хумор",
        "3": "забавен/на, привлекателен/на, активен/на ",
        "question": "Какъв партньор бихте искали да имате?"
    }, {
        "1": "Никога!",
        "2": "Само когато е нервен/а.",
        "3": "Тече му/й носа и кашля. Може да е заразно! ",
        "question": "Страня от партньора си когато:"
    }, {
        "1": "Започват връзка с гадже на приятел/ка.",
        "2": "Изневеряват.",
        "3": "Всеки да прави каквото си иска, не ми пука. ",
        "question": "Мразя хора, които:"
    }, {
        "1": "Срещам някой/я в бара и го/я завличам у нас.",
        "2": "Разходка в парка.",
        "3": "Кино, ресторант и после към вкъщи за десерта. ",
        "question": "Как протича за вас първата среща?"
    }, {
        "1": "Е, нали се обичаме? Секса не променя нищо.",
        "2": "Е, тя/той не може, ама другите нали могат!",
        "3": "Ще направя всичко което зависи от мен, за да може скоро пак да го правим.",
        "question": "Временно партньора ви не може да прави секс с вас. Вие:"
    }, {
        "1": "Брак? Какво беше това?!",
        "2": "Щом се обичаме, другото няма значение.",
        "3": "Любов, секс, разбирателство.",
        "question": "За да е успешен брака, решението трябва да бъде взето на базата на:"
    }, {
        "1": "Не поемам такива рискове, все пак един живот се живее.",
        "2": "Каквото повикало, такова се обадило.",
        "3": "До гроб!",
        "question": "Верен/вярна ли сте?"
    }, {
        "1": "Изпълва ме със щастие.",
        "2": "Приемам го вечер, след вечеря и го търпя максимум до закуска.",
        "3": "Обичам да е край мен, но обичам и да съм сам от време на време.",
        "question": "Как приемате присъствието на партньора си?"
    }, {
        "1": "От време на време готвя и гледам да не пропускам празник без подарък",
        "2": "Всичко.",
        "3": "Аз за него или той/тя за мен?",
        "question": "Какво обичате да правите за пратньора си?"
    }],
    "appname": "Любов или страст?",
    "description": "Случвало ли ви се е да ви се завива свят от любов? Не бързайте толкова. Първо трябва да уточним, дали това, което изпитвате, е любов или страст. Можете да бъдете сигурни само след като направите този тест!",
    "owner": "1563161591",
    "ownerpic": "http://profile.ak.fbcdn.net/hprofile-ak-snc4/hs358.snc4/41762_1563161591_4253_q.jpg",
    "uid": "4c6c09d7b596b",
    "results": [{
        "short": " Маниак/маниачка",
        "full": "Страстен/страстна любовник/любовница. Страстта, а не любовта е в основата на интимните ви взаимоотношения. За вас от най-голямо значение е да имате партньор/ка, който да задоволява сексуалните ви нужди. ",
        "image": "r1tfVK6ze"
    }, {
        "short": " Ромео/Жулиета",
        "full": "Вие обичате партньора/партньорката си. Интересувате се от цялостната му/и личност, а не от сексуалните му/и способности. Вие наистина ще имате невероятен сексуален живот. \r\n",
        "image": "ryEyEYTMe"
    }, {
        "short": " Прагматичен/прагматична",
        "full": "Страстта не е без значение. И любов, и страст – отношенията ви са нещо средно между двете.Това, че осъзнавате разликата между двете, ви помага да си подберете идеалния партньор. ",
        "image": "S1MKXYaze"
    }],
    "image": "rkL6ztTGl",
    "slug": "quizimage"
}