{
  "_id": "4c8e474561438",
  "promoted":true, "type":"bg", "hrev2": "1-28176487a5015d87204d1ca75cc67584",
  "questions": [
 
    {
      "1": "минижуп",
      "2": "под коляно",
      "3": "до глезена",
      "question": "От полите в ежедневието предпочиташ: "
    },
    {
      "1": "червен",
      "2": "пастелни цветове",
      "3": "бяло, сиво или кафяво",
      "question": "Преобладаващ цвят на дрехите ти е:"
    },
    {
      "1": "сини, но с протрити части",
      "2": "предпочитам да са друг цвят",
      "3": "класически сини",
      "question": "Дънките ти са:"
    },
    {
      "1": "са основно облекло",
      "2": "задължително са вталени",
      "3": "присъстват от време на време",
      "question": "Тениските в твоя делничен ден:"
    },
    {
      "1": "задължително всеки ден",
      "2": "само при официални поводи",
      "3": "не нося бижута",
      "question": "Бижутата:"
    }
  ],
  "appname": "Кажи ми как се обличаш?",
  "description": "Облеклото издава много за характера. Вярно е, че се обличаме според сезона, настроението, мястото, където отиваме, например, но каквото и да облечем - то говори за нас на останалите. А както се казва - по дрехите посрещат! Нека видим какво може да издаде твоето облекло за теб и твоя характер.",
  "quiz": "14",
  "slug": "quizimage",
  "share": "Сподели във Фейсбук",
  "image": "H1lvoJ17e",
  "results": [
    {
      "short": "Светът е твой!",
      "full": "Поне ти така мислиш. Имаш големи шансове за успех. Внимавай само да не плашиш мъжете с поведението си. Понякога отстъпвай крачка назад.",
      "image": "SkG9oy1mx"
    },
    {
      "short": "Ти си в идеалния баланс на личността!",
      "full": "Нито прекалено затворена, нито прекалено агресивна към околните и света. Опитай да запазиш този баланс повече в живота си.",
      "image": "SkG9oy1mx"
    },
    {
      "short": "Ти си прекалено затворена и стеснителна!",
      "full": "В същото време си спокойна или поне добре успяваш да прикриеш вътрешното напрежение. Позволи си малко повече свобода в ежедневието.",
      "image": "SkG9oy1mx"
    }
  ]
}