{
  "_id": "4c84f2b76d187",
  "promoted":true, "type":"bg", "hrev2": "1-906fef2b44dbbf85af4e9d4f60cde30a",
  "questions": [
 
    {
      "1": "4 или 5 ",
      "2": "2 или 3",
      "3": "5 или 6",
      "4": "естествено, че 6!!!",
      "question": "Kаква е най често получаваната ви оценка?"
    },
    {
      "1": "отмъщавам си на някой или измислям нови номера, които да тествам на учителя",
      "2": "седя и зяпам в една точка",
      "3": "гледам ТВ, стоя на компа, забавлявам се с фр...",
      "4": "чета, уча или чистя и подреждам",
      "question": "Какво правите в свободното си време?"
    },
    {
      "1": "почти всеки ден, свикнал съм",
      "2": "постоянно, заради двойките",
      "3": "рядко, но се случва понякога",
      "4": "никога!!",
      "question": "Колко често ви наказват?"
    },
    {
      "1": "доста са хората около мен",
      "2": "нямам приятели, всички ме мислят за тъп",
      "3": "аз със всички се разбирам",
      "4": "1 или 2 другите мислят, че зубър...",
      "question": "Колко приятели имате?"
    },
    {
      "1": "змия, гущер, питбул.....",
      "2": "не знам",
      "3": "коте, куче, хамстер, каквото и да е. обичам животните",
      "4": "не искам животно вкъщи! много цапат ",
      "question": "Какъв е домашен любимец бихте искали?"
    },
    {
      "1": "всякаква",
      "2": "чалга",
      "3": "каквато слушат повечето - поп, рок... такива",
      "4": "само класическа и такава каквато и мама харесва",
      "question": "Каква музика слушате?"
    }
  ],
  "appname": "Бива ли ви да правите номера и пакости на другите?",
  "description": ";dd",
  "quiz": "14",
  "image": "Hy_spWkQx",
  "slug": "quizimage",
  "share": "Сподели във Фейсбук",
  "results": [
    {
      "short": "Да!!",
      "full": "Вие сте отличен пакостник! Може  да измисляте и осъществявате уникални неща, и затова хората около вас трябва да внимават да не ви ядосат с нещо, за да не си получат заслуженото. Успех, но все пак внимавайте да не ви пипнат! ;)))",
      "image": "ByqTpZkXx"
    },
    {
      "short": "Не!",
      "full": "За жалост вие сте прекалено глупав/а/ (без да се обиждате :)), за да измислите добър номер. Може би правенето на глупости и получаването на двойки ви се отдава отдава повече. ;]",
      "image": "ByqTpZkXx"
    },
    {
      "short": "По-добре недейте.",
      "full": "Вие сте добър човек и не ви отива да правите пакости на другите. Можете да създадете нови приятелства, вместо да си създавате неприятности :))",
      "image": "ByqTpZkXx"
    },
    {
      "short": "Не е за вас.",
      "full": "Вие сте примерен човек! Държите винаги всичко да е чисто, подредено и под контрол. Номерата и пакостите не са за вас. Или просто не ви стиска...",
      "image": "ByqTpZkXx"
    }
  ]
}