{
  "_id": "4c7704cb1ce9f",
  "promoted":true, "type":"bg", "hrev2": "1-e3110eae32479e24ccae9b16c67e74ff",
  "questions": [
 
    {
      "1": "Както дойде",
      "2": "Ставам рано и се захващам на работа",
      "3": "Обичам да се излежавам",
      "question": "Сутрин:"
    },
    {
      "1": "Трудно, но се подчинявам",
      "2": "Подчинявам се",
      "3": "Не слушам",
      "question": "При забрана:"
    },
    {
      "1": "По добре късно, от колкото никога",
      "2": "Колкото повече-толкова по-добре",
      "3": "Един-Първият!",
      "question": "Мъжете:"
    },
    {
      "1": "Да ме избави от бедността",
      "2": "Да спаси дори живота ми",
      "3": "Да ме събужда с целувка",
      "question": "Той трябва:"
    }
  ],
  "appname": "Коя приказна принцеса си?",
  "description": "В този забавен тест може да погледнеш на себе си като на принцеса от приказките - коя от всички е най-близо до теб, само след няколко клика ще имаш отговор! Забавлявай се! ",
  "quiz": "14",
  "image": "SyBZaMlQl",
  "slug": "quizimage",
  "share": "Сподели във Фейсбук",
  "results": [
    {
      "short": "Ти си като Пепеляшка!",
      "full": "Приказно красива, но и прикрита зад маската на ежедневието, добра, но и малко наивна. Позволявай си повече - показвай чара си по-често! И бъди по-внимателна - да не загубиш отново пантофката си!",
      "image": "Hke76MxXe"
    },
    {
      "short": "Ти си като Снежанка!",
      "full": "Обичаш да си обкръжена от мъже, които се грижат за теб. Работлива си, което се харесва от околните ти. Все пак - не се поддавай на изкушения!",
      "image": "Byd46Ggmx"
    },
    {
      "short": "Спящата красавица!",
      "full": "Ти приличаш най-вече на Спящата красавица - обичаш нежните принцове, които те събуждат с целувка, обичаш да си подремваш и не си много послушна - когато ти се казва да не ходиш във високата кула - не слушаш.",
      "image": "SJXLpMx7e"
    }
  ]
}