{
  "_id": "4c739b1b6774a",
  "promoted":true, "type":"bg", 
  "questions": [
    {
      "1": "",
      "2": "",
      "3": "",
      "question": ""
    },
    {
      "1": "Стефани Майър.",
      "2": "Ел Джей Смит.",
      "3": "Някой с болен мозък!",
      "question": "Кой е написал книгите?"
    },
    {
      "1": "Изабела Мари Суон.",
      "2": "Ам... идея нямам, карай както се казва там. ",
      "3": "Елена Гилбърт.",
      "question": "Как се казва главната героиня?"
    },
    {
      "1": "Едуард Кълън и Джейкъб Блек. ",
      "2": "Не помня имена, само че е за вампири и вълци. ",
      "3": "Стефан и Деймън Салваторе.",
      "question": "Как се казват двамата главни герой?"
    },
    {
      "1": "Пол Уесли, Нина Добрев и Иън Сомълхолдер.",
      "2": "Кристен Стюърт, Робърт Патинсън и Тейлър Лаутнър.",
      "3": " Хах, все едно, пак не струва! ",
      "question": "Кои актьори изпълняват главните роли?"
    },
    {
      "1": "Четири.",
      "2": "Три мисля. ",
      "3": "Около десет май бяха.",
      "question": "Колко на брой са книгите? "
    },
    {
      "1": "Катрин Хардуик и Мелиса Розенбърг. ",
      "2": "Мелиса Розенбърг и Дейвид Слейд.",
      "3": "Кевин Уилиамсън и Джули Плек. Знам го това! ",
      "question": "Кой е сценарист и режисьор на първия филм?"
    },
    {
      "1": "Новолуние, Зазоряване, Затъмнение и Здрач. ",
      "2": "Здрач е сигурно, после май Новолуние ама не се сещам за друго.",
      "3": "Пълнолуние, Свечеряване, Борбата... Тъмното обединение? ",
      "question": "Как се казват книгите? "
    },
    {
      "1": "Седем. ",
      "2": "Шест или пет, не съм сигурен, някой ми се губи. ",
      "3": "Трима бе. Елена, Деймън и Стефан :) ",
      "question": "Колко на брои са Кълън?"
    },
    {
      "1": "Кълън са онея русите двамата, а пък Хейл другите. ",
      "2": "Кълън - Карлайл, Есме, Емет, Едуард, Алис. Хейл - Розали и Джаспър. ",
      "3": "Не знам, не ме интересува. ",
      "question": "Кои са Кълън и кои Хейл?"
    },
    {
      "1": "За да предпази Бела от себе си и взема ужасно грешно решение. ",
      "2": "Щото, ако остане ще си хапне Бела ;) ",
      "3": "Ем той не го ли убиха там? ",
      "question": "Защо в Новолуние Едуард си тръгва?"
    },
    {
      "1": "Най - добрият приятел на Бела и върколак. ",
      "2": "Върколак. ",
      "3": "Ааа, знам го това, върколак е той и гаджето на момичето. ",
      "question": "Какъв е Джейкъб?"
    },
    {
      "1": "Вампир.",
      "2": "Вампир влюбен във Бела. ",
      "3": "Нейния най - добър приятел и вампир. ",
      "question": "А Едуард?"
    },
    {
      "1": "Вегетарианци са. Не искат да пият кръв от хора. ",
      "2": "Не обичат човешка кръв и са вегетарианци май. ",
      "3": "Ами вампири, кви да са?! Защото една лоша вампирка ги е превърнала. ",
      "question": "Какви са Кълън и защо? "
    },
    {
      "1": "Волтури и Виктория.",
      "2": "Много хора, тя на всички е враг тая. ",
      "3": "Катрин!",
      "question": "Кой иска да убие Бела? "
    },
    {
      "1": "Ами тя е човек, те вампири. Сигурно им мирише хубаво :D ",
      "2": "Защото знае за вампирите - Волтури, а Виктория, защото Едуард уби Джеймс.",
      "3": "Защото Стефан и Деймън са влюбени в Елена, а тя ги иска за нея.",
      "question": "Защо?"
    },
    {
      "1": "Бела и Едуард се женят, имат дете - Ренесме, Джейкъб я белязва, побеждават Волтури.",
      "2": "Женят се Бела и Едуард и побеждават Волтури.",
      "3": "Не съм стигнал до там още. ",
      "question": "Последно - Какво става в последната книга?"
    }
  ],
  "appname": "Истински фен на Здрач ли си?",
  "description": "Знаеш ли всичко за Здрач?",
  "quiz": "14",
  "image": "S1hIlfJXx",
  "slug": "quizimage",
  "share": "Сподели във Фейсбук",
  "results": [
    {
      "short": "Ти си истински фен на сагата! БРАВО! ",
      "full": "Май някой много пъти е чел книгите, само така! ;) ",
      "image": ""
    },
    {
      "short": "Знаеш нещичко ;)",
      "full": "Дочул си от някъде нещо за книгите ;) ",
      "image": ""
    },
    {
      "short": "Ама ти знаеш ли нещо за тази сага?! ",
      "full": "Дори не си чувал за Здрач!",
      "image": ""  
    }
  ]
}