{
  "_id": "4c874a5d6ba26",
  "promoted":true, "type":"bg", "hrev2": "1-32d5e330a0d34f1f08d7616b7a1e3540",   
  "questions": [
 
    {
      "1": "овен",
      "2": "телец",
      "3": "близнаци",
      "4": "рак",
      "5": "лъв",
      "6": "дева",
      "7": "везни",
      "8": "скорпион",
      "9": "стрелец",
      "10": "козирог",
      "11": "водолей",
      "12": "риби",
      "question": "Изберете зодия и вижте как се влияе тя при пълнолуние."
    }
  ],
  "appname": "Зодиите и Луната",
  "description": "Нашият зодиакален знак се влияе от фазите на луната. Например при пълнолуние мозъчната аура става възможно най-голяма и променя поведението на хората, родени през различните зодиакални знаци. ",
  "quiz": "14",
  "image": "HJ_E5zgQg",
  "slug": "quizimage",
  "share": "Сподели във Фейсбук",
  "results": [
    {
      "short": "ОВНИТЕ",
      "full": "стават по-нервни. В този период те рискуват да обидят някого, без да го е заслужил.",
      "image": "Bk6tFGCzg"
    },
    {
      "short": "ТЕЛЦИТЕ",
      "full": "стават по-сексуални.Сега е времето, в което плътските удоволствия са най-големият им стремеж.",
      "image": "S1ee5GAfx"
    },
    {
      "short": "БЛИЗНАЦИТЕ",
      "full": "получават творчески импулси и развихрят въображението си. В този период се отдават на творчество.",
      "image": "rJQf9M0fg"
    },
    {
      "short": "РАКЪТ",
      "full": "започва да не знае какво иска, но пък нещата му се получават точно както трябва.",
      "image": "ryYBqzRMl"
    },
    {
      "short": "ЛЪВЪТ",
      "full": "е най-слънчевият знак и почти не се влияе от Луната, но все пак тя му носи спокойствие.",
      "image": "rJFNsf0fe"
    },
    {
      "short": "ДЕВИТЕ",
      "full": "стават много досадни и капризни. Критикуват прекалено много и незаслужено.",
      "image": "SyOIozAMl"
    },
    {
      "short": "ВЕЗНИТЕ",
      "full": "стават по-уравновесени отвсякога. Сега е моментът, в който взимат най-правилните решения.",
      "image": "Hk1OjfRfx"
    },
    {
      "short": "СКОРПИОНЪТ",
      "full": "става много нетърпелив и реализира дълго отлаганите си мечтания.",
      "image": "BJAYoGCGx"
    },
    {
      "short": "СТРЕЛЦИТЕ",
      "full": "стават неотразимо чаровни и в този ден могат с чара си да постигнат много.",
      "image": "Bks2oGAGg"
    },
    {
      "short": "КОЗИРОГЪТ",
      "full": "без да знае защо, започва да демонстрира лошо настроение. Причината не е ясна!",
      "image": "rJhCjG0Gx"
    },
    {
      "short": "ВОДОЛЕИТЕ",
      "full": "стават неспокойни и неуверени. В този момент е добре да не предприемат рисковани действия.",
      "image": "Bkpx2M0Gg"
    },
    {
      "short": "РИБИТЕ",
      "full": "получават еуфорично поведение и са готови на всякакви лудориии.",
      "image": "B1RzhfAfl"
    }
  ]
}